"Country,Other",TotalCases,NewCases,TotalDeaths,NewDeaths,TotalRecovered,ActiveCases,"Serious,Critical",Tot Cases/1M pop
China,80824.0,11, 3189 ,13,65573 , 12062 ,3610 ,56.2
Italy,21157.0, +3497 , 1441 ,175,1966 , 17750 ,1518 ,349.9
Iran,12729.0, +1365 ,611,97,4339 , 7779 , ,151.5
S. Korea,8086.0,107,72,5,714, 7300 ,59,157.7
Spain,6313.0, +1081 ,193,60,517, 5603 ,293,135.0
Germany,4525.0,850,8, ,46, 4471 ,9,54.0
France,4499.0,838,91,12,12, 4396 ,154,68.9
USA,2499.0,252,55,6,49, 2395 ,10,7.5
Switzerland,1375.0,236,13,2,4, 1358 , ,158.9
UK,1140.0,342,21,10,18, 1101 ,20,16.8
Norway,1056.0,60,2,1,1, 1053 ,27,194.8
Sweden,961.0,147,2,1,1,958,2,95.2
Netherlands,959.0,155,12,2,2,945,45,56.0
Denmark,827.0,23,1,1,1,825,2,142.8
Japan,804.0,70,22,1,122,660,35,6.4
Diamond Princess,696.0, ,7, ,325,364,32,
Belgium,689.0,130,4,1,1,684,24,59.4
Austria,655.0,151,1, ,6,648,1,72.7
Qatar,337.0,17, , , ,337, ,117.0
Australia,248.0,49,3, ,27,218,1,9.7
Malaysia,238.0,41, , ,35,203,4,7.4
Greece,228.0,38,3,2,2,223,5,21.9
Canada,225.0,27,1, ,11,213,1,6.0
Finland,225.0,70, , ,1,224, ,40.6
Bahrain,212.0,2, , ,60,152,1,124.6
Singapore,212.0,12, , ,97,115,11,36.2
Czechia,189.0,48, , , ,189,2,17.6
Slovenia,181.0,40,1,1, ,180,3,87.1
Israel,178.0,35, , ,4,174,3,20.6
Portugal,169.0,57, , ,2,167,10,16.6
Iceland,156.0,22, , , ,156, ,
Brazil,151.0, , , ,1,150,2,0.7
Hong Kong,138.0,6,4, ,78,56,4,18.4
Ireland,129.0,39,2,1, ,127,6,26.1
Estonia,115.0,36, , , ,115, ,86.7
Romania,113.0,18, , ,9,104,1,5.9
Philippines,111.0,47,8,3,2,101,1,1.0
Iraq,110.0,9,10,1,26,74, ,2.7
Kuwait,104.0,4, , ,5,99,4,24.4
Saudi Arabia,103.0,17, , ,1,102, ,3.0
San Marino,101.0,21,5, ,4,92,3,
India,97.0,15,2, ,10,85, ,0.1
Indonesia,96.0,27,5,1,8,83, ,0.4
Lebanon,93.0,16,3, ,1,89,3,13.6
Egypt,93.0, ,2, ,27,64, ,0.9
Poland,93.0,25,2, , ,91,3,2.5
UAE,85.0, , , ,20,65,2,8.6
Thailand,82.0,7,1, ,35,46,1,1.2
Chile,61.0,18, , , ,61, ,3.2
Russia,59.0,14, , ,8,51, ,0.4
Taiwan,53.0,3,1, ,20,32, ,2.2
Vietnam,53.0,9, , ,16,37, ,0.5
Luxembourg,51.0,13,1, , ,50, ,
Slovakia,44.0,12, , , ,44, ,8.1
Serbia,41.0,6, , , ,41,1,4.7
Brunei,40.0,3, , , ,40, ,
Albania,38.0,5,1, , ,37,2,13.2
Croatia,38.0,6, , ,1,37, ,9.3
Peru,38.0, , , , ,38, ,1.2
South Africa,38.0,14, , , ,38, ,0.6
Palestine,38.0,3, , , ,38, ,7.4
Algeria,37.0,11,3,1,10,24, ,0.8
Bulgaria,37.0,6,2,1, ,35, ,5.3
Panama,36.0,9,1, , ,35, ,8.3
Argentina,34.0, ,2, , ,32,1,0.8
Pakistan,31.0,3, , ,2,29, ,0.1
Georgia,30.0,5, , , ,30,1,7.5
Belarus,27.0, , , ,3,24, ,2.9
Latvia,26.0,9, , ,1,25, ,13.8
Mexico,26.0,11, , ,4,22,1,0.2
Costa Rica,26.0,3, , , ,26,1,5.1
Hungary,25.0,6, , ,1,24, ,2.6
Ecuador,23.0, ,1, , ,22,1,1.3
Colombia,22.0,6, , , ,22, ,0.4
Senegal,21.0, , , ,2,19, ,1.3
Cyprus,21.0,7, , , ,21, ,17.4
Oman,19.0, , , ,9,10, ,3.7
Armenia,18.0,10, , , ,18, ,6.1
Tunisia,18.0,2, , , ,18,2,1.5
Bosnia and Herzegovina,18.0, , , , ,18, ,5.5
Malta,18.0,6, , ,1,17, ,
Morocco,17.0,10,1, ,1,15,1,0.5
Azerbaijan,15.0, ,1, ,3,11, ,1.5
North Macedonia,13.0, , , ,1,12, ,6.2
Moldova,12.0,6, , , ,12, ,3.0
Afghanistan,11.0,4, , , ,11, ,0.3
Dominican Republic,11.0,6, , , ,11, ,1.0
Macao,10.0, , , ,10,0, ,
Sri Lanka,10.0,4, , ,1,9, ,0.5
Bolivia,10.0, , , , ,10, ,0.9
Maldives,10.0,1, , , ,10, ,
Faeroe Islands,9.0,6, , , ,9, ,
Lithuania,8.0,2, , ,1,7, ,2.9
Jamaica,8.0, , , , ,8, ,2.7
Cambodia,7.0, , , ,1,6, ,0.4
French Guiana,7.0,1, , , ,7, ,
Paraguay,7.0,1, , , ,7,1,1.0
New Zealand,6.0, , , , ,6, ,1.2
Kazakhstan,6.0,2, , , ,6, ,0.3
Martinique,6.0,3, , , ,6, ,
Reunion,6.0,1, , , ,6, ,
Bangladesh,5.0,2, , ,2,3, ,
Turkey,5.0, , , , ,5, ,0.1
Cuba,4.0, , , , ,4, ,0.4
Liechtenstein,4.0, , , , ,4, ,
Uruguay,4.0, , , , ,4, ,1.2
Ukraine,3.0, ,1, , ,2, ,0.1
Channel Islands,3.0, , , , ,3, ,
French Polynesia,3.0, , , , ,3, ,
Honduras,3.0,1, , , ,3, ,0.3
Puerto Rico,3.0, , , , ,3, ,1.0
Monaco,2.0, , , , ,2, ,
Nigeria,2.0, , , , ,2, ,
Aruba,2.0, , , , ,2, ,
Burkina Faso,2.0, , , , ,2, ,0.1
Cameroon,2.0, , , , ,2, ,0.1
DRC,2.0, , , , ,2, ,
Ghana,2.0, , , , ,2, ,0.1
Namibia,2.0,2, , , ,2, ,0.8
Saint Martin,2.0, , , , ,2, ,
Trinidad and Tobago,2.0,1, , , ,2, ,1.4
Venezuela,2.0, , , , ,2, ,0.1
Guyana,1.0, ,1, , ,0, ,
Sudan,1.0, ,1, , ,0, ,
Andorra,1.0, , , , ,1, ,
Jordan,1.0, , , ,1,0, ,0.1
Nepal,1.0, , , ,1,0, ,
Antigua and Barbuda,1.0, , , , ,1, ,
Bhutan,1.0, , , , ,1, ,
Cayman Islands,1.0, , , , ,1, ,
Ivory Coast,1.0, , , , ,1, ,
Curaçao,1.0, , , , ,1, ,
Ethiopia,1.0, , , , ,1, ,
Gabon,1.0, , , , ,1, ,0.4
Gibraltar,1.0, , , ,1,0, ,
Guadeloupe,1.0, , , , ,1, ,
Guatemala,1.0, , , , ,1, ,0.1
Guinea,1.0, , , , ,1, ,0.1
Vatican City,1.0, , , , ,1, ,
Kenya,1.0, , , , ,1, ,
Mauritania,1.0, , , , ,1, ,0.2
Mongolia,1.0, , , , ,1, ,0.3
Rwanda,1.0,1, , , ,1, ,0.1
St. Barth,1.0, , , , ,1, ,
Saint Lucia,1.0, , , , ,1, ,
St. Vincent Grenadines,1.0, , , , ,1, ,
Suriname,1.0, , , , ,1, ,
Eswatini,1.0,1, , , ,1, ,0.9
Togo,1.0, , , , ,1, ,0.1
U.S. Virgin Islands,1.0,1, , , ,1, ,
