"Country,Other",TotalCases,NewCases,TotalDeaths,NewDeaths,TotalRecovered,ActiveCases,"Serious,Critical",Tot Cases/1M pop
China,80894,13, 3237 ,11,69614 , 8043 ,2622 ,56
Italy,35713, +4207 , 2978 ,475,4025 , 28710 ,2257 ,591
Iran,17361, +1192 , 1135 ,147,5710 , 10516 , ,207
Spain,14746, +2920 ,638,105,1081 , 13027 ,563,315
Germany,12327, +2960 ,28,2,105, 12194 ,2,147
France,9134, +1404 ,264,89,602, 8268 ,931,140
S. Korea,8413,93,84,3,1540 , 6789 ,59,164
USA,8020, +1609 ,125,16,106, 7789 ,12,24
Switzerland,3076,334,33,6,15, 3028 , ,355
UK,2626,676,104,33,65, 2457 ,20,39
Netherlands,2051,346,58,15,2, 1991 ,45,120
Austria,1646,314,4, ,9, 1633 ,12,183
Norway,1577,106,6,3,1, 1570 ,27,291
Belgium,1486,243,14,4,31, 1441 ,33,128
Sweden,1292,96,10,2,15, 1267 ,12,128
Denmark,1057,80,4, ,1, 1052 ,24,182
Japan,899,21,29, ,144,726,41,7
Malaysia,790,117,2, ,60,728,15,24
Diamond Princess,712, ,7, ,456,249,14,
Canada,648,50,9,1,12,627,1,17
Portugal,642,194,2,1,4,636,18,63
Australia,565,110,6,1,43,516,1,22
Czechia,522,88, , ,3,519,5,49
Qatar,452,10, , ,4,448, ,157
Israel,433,96, , ,11,422,6,50
Greece,418,31,5, ,14,399,13,40
Brazil,393,47,3,2,2,388,18,2
Finland,359,37, , ,10,349,2,65
Singapore,313,47, , ,114,199,14,54
Pakistan,307,60,2,2,13,292, ,1
Ireland,292, ,2, ,5,285,6,59
Poland,287,49,5, ,1,281,3,8
Slovenia,286,11,1, , ,285,4,138
Romania,260,43, , ,19,241,5,14
Estonia,258,33, , ,1,257,1,194
Bahrain,255,14,1, ,95,159,3,150
Iceland,250,3, , ,5,245,1,733
Saudi Arabia,238,67, , ,6,232, ,7
Chile,238,37, , , ,238,3,12
Indonesia,227,55,19,12,11,197, ,0.8
Thailand,212,35,1, ,41,170,1,3
Egypt,210,14,6, ,28,176, ,2
Luxembourg,203,63,2,1, ,201,1,324
Philippines,202,15,17,3,4,181,1,2
Hong Kong,181,13,4, ,92,85,4,24
India,168,25,3, ,14,151, ,0.1
Iraq,164,10,12,1,41,111, ,4
Ecuador,155,44,2, , ,153,2,9
Russia,147,33, , ,8,139, ,1
Peru,145,28, , ,1,144,8,4
Kuwait,142,12, , ,15,127,4,33
Lebanon,133,9,4, ,4,125,3,19
San Marino,119, ,11, ,4,104,11,3507
South Africa,116,31, , , ,116, ,2
UAE,113, , , ,26,87,2,11
Armenia,110,32, , ,1,109,2,37
Slovakia,105,8, , , ,105,2,19
Taiwan,100,23,1, ,20,79, ,4
Turkey,98, ,1, , ,97, ,1
Mexico,93,11, , ,4,89,1,0.7
Colombia,93,28, , ,1,92, ,2
Bulgaria,92,11,2, , ,90, ,13
Serbia,89,17, , ,1,88,4,10
Croatia,87,18, , ,5,82, ,21
Panama,86,17,1, , ,85,7,20
Argentina,79, ,2, ,3,74,1,2
Vietnam,76,10, , ,16,60, ,0.8
Algeria,75,14,7,2,32,36, ,2
Latvia,71,11, , ,1,70, ,38
Costa Rica,69,19, , , ,69,3,14
Brunei,68,12, , , ,68,2,155
Albania,59,4,2,1, ,57,2,21
Hungary,58,8,1, ,2,55,4,6
Cyprus,58,9, , , ,58,1,48
Faeroe Islands,58,11, , ,1,57, ,1187
Jordan,56,8, , ,1,55, ,5
Morocco,54,10,2, ,1,51,1,1
Belarus,51,15, , ,5,46, ,5
Sri Lanka,51,7, , ,3,48, ,2
Uruguay,50, , , , ,50, ,14
Malta,48,10, , ,2,46, ,109
Palestine,44, , , , ,44, ,9
Andorra,39, , , ,1,38, ,505
Oman,39,6, , ,13,26, ,8
Bosnia and Herzegovina,39,5, , ,2,37, ,12
Georgia,38,4, , ,1,37,1,10
Cambodia,37,4, , ,1,36, ,2
Moldova,36,6,1,1,1,34,2,9
Senegal,36,9, , ,2,34, ,2
Kazakhstan,36,3, , , ,36, ,2
Venezuela,36,3, , , ,36, ,1
North Macedonia,35,4, , ,1,34,1,17
Azerbaijan,34, ,1, ,6,27, ,3
Lithuania,33,7, , ,1,32,1,12
Tunisia,29,2, , ,1,28,2,2
Liechtenstein,28,9, , , ,28, ,734
Guadeloupe,27,9, , , ,27, ,67
Martinique,23,8,1, , ,22, ,61
Afghanistan,22, , , ,1,21, ,0.6
Dominican Republic,21, ,1, , ,20, ,2
Burkina Faso,20,5,1,1, ,19, ,1.0
New Zealand,20, , , , ,20, ,4
Uzbekistan,18,7, , , ,18, ,0.5
Macao,17,4, , ,10,7, ,26
Ukraine,14, ,2, , ,12, ,0.3
Bangladesh,14,4,1,1,3,10, ,0.09
Cameroon,13,3, , , ,13, ,0.5
Jamaica,13, , , ,2,11, ,4
Maldives,13, , , , ,13, ,24
Bolivia,12, , , , ,12, ,1
Réunion,12,3, , , ,12, ,13
French Guiana,11, , , , ,11, ,37
Paraguay,11,2, , , ,11,1,2
Rwanda,11,4, , , ,11, ,0.8
Cuba,10,3, , , ,10, ,0.9
Monaco,9, , , , ,9, ,229
Ivory Coast,9,5, , ,1,8, ,0.3
Honduras,9,1, , , ,9, ,0.9
Guatemala,8, ,1, , ,7, ,0.4
Nigeria,8,5, , ,1,7, ,0.04
Gibraltar,8,5, , ,2,6, ,237
Guam,8,3, , , ,8, ,47
Montenegro,8,6, , , ,8, ,13
Channel Islands,7,1, , , ,7, ,40
DRC,7,4, , , ,7, ,0.08
Ghana,7, , , , ,7, ,0.2
Kenya,7,3, , , ,7, ,0.1
Trinidad and Tobago,7,2, , , ,7, ,5
Ethiopia,6, , , , ,6, ,0.05
Mongolia,6,1, , , ,6, ,2
Seychelles,6,2, , , ,6, ,61
Puerto Rico,5, , , , ,5, ,2
Guyana,4, ,1, , ,3, ,5
Aruba,4,1, , , ,4, ,37
Equatorial Guinea,4,3, , , ,4, ,3
Curaçao,3, , , , ,3, ,18
French Polynesia,3, , , , ,3, ,11
Gabon,3, , , , ,3, ,1
Kyrgyzstan,3,3, , , ,3, ,0.5
Mauritius,3,3, , , ,3, ,2
Mayotte,3, , , , ,3, ,11
St. Barth,3, , , , ,3, ,304
Saint Martin,3,1, , , ,3, ,78
Tanzania,3,2, , , ,3, ,0.05
Sudan,2,1,1, , ,1, ,0.05
Barbados,2, , , , ,2, ,7
Benin,2,1, , , ,2, ,0.2
Greenland,2,1, , , ,2, ,35
Liberia,2, , , , ,2, ,0.4
Mauritania,2,1, , , ,2, ,0.4
Namibia,2, , , , ,2, ,0.8
New Caledonia,2,2, , , ,2, ,7
Saint Lucia,2, , , , ,2, ,11
U.S. Virgin Islands,2, , , , ,2, ,19
Zambia,2,2, , , ,2, ,0.1
Cayman Islands,1, ,1, , ,0, ,15
Nepal,1, , , ,1,0, ,0.03
Antigua and Barbuda,1, , , , ,1, ,10
Bahamas,1, , , , ,1, ,3
Bhutan,1, , , , ,1, ,1
CAR,1, , , , ,1, ,0.2
Congo,1, , , , ,1, ,0.2
Djibouti,1,1, , , ,1, ,1
Gambia,1, , , , ,1, ,0.4
Guinea,1, , , , ,1, ,0.08
Vatican City,1, , , , ,1, ,1248
Montserrat,1,1, , , ,1, ,200
St. Vincent Grenadines,1, , , , ,1, ,9
Sint Maarten,1,1, , , ,1, ,23
Somalia,1, , , , ,1, ,0.06
Suriname,1, , , , ,1, ,2
Eswatini,1, , , , ,1, ,0.9
Togo,1, , , , ,1, ,0.1
Total:,216852,18634,8908,941,84383,123561,6868,27.8
CountryOther,TotalCases,NewCases,TotalDeaths,NewDeaths,TotalRecovered,ActiveCases,SeriousCritical,Tot Cases/1M pop
China,80881,21, 3226 ,13,68688 , 8967 ,3226 ,56
Italy,31506, +3526 , 2503 ,345,2941 , 26062 ,2060 ,521
Iran,16169, +1178 ,988,135,5389 , 9792 , ,193
Spain,11826, +1884 ,533,191,1028 , 10265 ,563,253
Germany,9367, +2095 ,26,9,67, 9274 ,2,112
S. Korea,8320,84,81,6,1401 , 6838 ,59,162
France,7730, +1097 ,175,27,602, 6953 ,699,118
USA,6411, +1748 ,109,23,106, 6196 ,12,19
Switzerland,2742,389,27,8,15, 2700 , ,317
UK,1950,407,71,16,65, 1814 ,20,29
Netherlands,1705,292,43,19,2, 1660 ,45,100
Norway,1471,123,3, ,1, 1467 ,27,271
Austria,1332,314,4,1,9, 1319 ,12,148
Belgium,1243,185,10, ,14, 1219 ,33,107
Sweden,1196,75,8,1,1, 1187 ,12,118
Denmark,977,63,4, ,1,972,18,169
Japan,878,45,29,1,144,705,41,7
Diamond Princess,712, ,7, ,456,249,14,
Malaysia,673,107,2,2,49,622,10,21
Canada,598,157,8,4,12,578,1,16
Australia,455,54,5, ,27,423,1,18
Portugal,448,117,1, ,3,444,18,44
Qatar,442,3, , ,4,438, ,153
Czechia,434,90, , ,3,431,2,41
Greece,387,35,5,1,14,368,11,37
Brazil,346,112,1,1,2,343,18,2
Israel,337,39, , ,11,326,5,39
Finland,322,44, , ,10,312,2,58
Ireland,292,69,2, ,5,285,6,59
Slovenia,275,22,1, , ,274,4,132
Singapore,266,23, , ,114,152,14,45
Iceland,247,48, , ,5,242,1,724
Pakistan,247,63, , ,2,245, ,1
Bahrain,241,13,1, ,88,152,3,142
Poland,238,61,5,1,1,232,3,6
Estonia,225,20, , ,1,224, ,170
Romania,217,49, , ,19,198,5,11
Chile,201,45, , , ,201,3,11
Egypt,196,30,6,2,26,164, ,2
Philippines,187,45,14,2,4,169,1,2
Thailand,177,30,1, ,41,135,1,3
Indonesia,172,38,7,2,9,156, ,0.6
Saudi Arabia,171,38, , ,6,165, ,5
Hong Kong,168,13,4, ,81,83,4,22
Iraq,154,21,11,1,41,102, ,4
India,143,14,3,1,14,126, ,0.1
Luxembourg,140,59,1, , ,139,1,224
Kuwait,130,7, , ,12,118,4,30
Lebanon,124,15,4,1,4,116,3,18
San Marino,119,10,11,2,4,104,11,3507
Peru,117,31, , ,1,116,8,4
Russia,114,21, , ,8,106, ,0.8
UAE,113,15, , ,26,87,2,11
Ecuador,111,53,2, , ,109,2,6
Turkey,98,51,1,1, ,97, ,1
Slovakia,97,25, , , ,97,2,18
South Africa,85,21, , , ,85, ,1
Mexico,82,29, , ,4,78,1,0.6
Bulgaria,81,19,2, , ,79, ,12
Argentina,79,14,2, ,3,74,1,2
Armenia,78,26, , ,1,77,2,26
Taiwan,77,10,1, ,20,56, ,3
Serbia,72,15, , ,1,71,4,8
Panama,69, ,1, , ,68,7,16
Croatia,69,12, , ,5,64, ,17
Vietnam,66,5, , ,16,50, ,0.7
Colombia,65,11, , ,1,64, ,1
Algeria,61,1,5,1,10,46, ,1
Latvia,60,26, , ,1,59, ,32
Brunei,56,2, , , ,56,1,128
Albania,55,4,1, , ,54,2,19
Hungary,50,11,1, ,2,47, ,5
Costa Rica,50,9, , , ,50,3,10
Uruguay,50,21, , , ,50, ,14
Cyprus,49,3, , , ,49,1,41
Jordan,48,19, , ,1,47, ,5
Faeroe Islands,47,29, , , ,47, ,962
Morocco,44,7,2,1,1,41,1,1
Sri Lanka,44,16, , ,1,43, ,2
Palestine,44,5, , , ,44, ,9
Andorra,39,25, , ,1,38, ,505
Malta,38,8, , ,2,36, ,86
Belarus,36, , , ,3,33, ,4
Azerbaijan,34,9,1, ,6,27, ,3
Georgia,34,1, , ,1,33,1,9
Bosnia and Herzegovina,34,9, , ,2,32, ,10
Cambodia,33,21, , ,1,32, ,2
Oman,33,9, , ,12,21, ,6
Kazakhstan,33,23, , , ,33, ,2
Venezuela,33,16, , , ,33, ,1
North Macedonia,31,7, , ,1,30,1,15
Moldova,30,1, , ,1,29,1,7
Senegal,27, , , ,2,25, ,2
Tunisia,27,3, , ,1,26,2,2
Lithuania,26,8, , ,1,25,1,10
Afghanistan,22,1, , ,1,21, ,0.6
Dominican Republic,21, ,1, , ,20, ,2
New Zealand,20,12, , , ,20, ,4
Liechtenstein,19,12, , , ,19, ,498
Guadeloupe,18,12, , , ,18, ,45
Martinique,15, ,1, , ,14, ,40
Burkina Faso,15, , , , ,15, ,0.7
Ukraine,14,7,2,1, ,12, ,0.3
Macao,13,1, , ,10,3, ,20
Jamaica,13,1, , ,2,11, ,4
Maldives,13, , , , ,13, ,24
Bolivia,12,1, , , ,12, ,1
French Guiana,11, , , , ,11, ,37
Uzbekistan,11,3, , , ,11, ,0.3
Bangladesh,10,2, , ,3,7, ,0.06
Cameroon,10,5, , , ,10, ,0.4
Monaco,9, , , , ,9, ,229
Paraguay,9,1, , , ,9,1,1
Réunion,9, , , , ,9, ,10
Guatemala,8, ,1, , ,7, ,0.4
Honduras,8,2, , , ,8, ,0.8
Guyana,7, ,1, , ,6, ,9
Cuba,7,3, , , ,7, ,0.6
Ghana,7,1, , , ,7, ,0.2
Rwanda,7, , , , ,7, ,0.5
Channel Islands,6, , , , ,6, ,35
Ethiopia,6,1, , , ,6, ,0.05
Guam,5,2, , , ,5, ,30
Mongolia,5,1, , , ,5, ,2
Puerto Rico,5, , , , ,5, ,2
Trinidad and Tobago,5,1, , , ,5, ,4
Ivory Coast,4, , , , ,4, ,0.2
Kenya,4,1, , , ,4, ,0.07
Seychelles,4,1, , , ,4, ,41
Nigeria,3,1, , ,1,2, ,0.01
Aruba,3,1, , , ,3, ,28
Curaçao,3,1, , , ,3, ,18
DRC,3, , , , ,3, ,0.03
French Polynesia,3, , , , ,3, ,11
Gabon,3,2, , , ,3, ,1
Gibraltar,3, , , ,2,1, ,89
Mayotte,3,1, , , ,3, ,11
St. Barth,3, , , , ,3, ,304
Barbados,2,2, , , ,2, ,7
Liberia,2,1, , , ,2, ,0.4
Montenegro,2,2, , , ,2, ,3
Namibia,2, , , , ,2, ,0.8
Saint Lucia,2, , , , ,2, ,11
Saint Martin,2, , , , ,2, ,52
U.S. Virgin Islands,2,1, , , ,2, ,19
Cayman Islands,1, ,1, , ,0, ,15
Sudan,1, ,1, , ,0, ,0.02
Nepal,1, , , ,1,0, ,0.03
Antigua and Barbuda,1, , , , ,1, ,10
Bahamas,1, , , , ,1, ,3
Benin,1, , , , ,1, ,0.08
Bhutan,1, , , , ,1, ,1
CAR,1, , , , ,1, ,0.2
Congo,1, , , , ,1, ,0.2
Equatorial Guinea,1, , , , ,1, ,0.7
Gambia,1,1, , , ,1, ,0.4
Greenland,1, , , , ,1, ,18
Guinea,1, , , , ,1, ,0.08
Vatican City,1, , , , ,1, ,1248
Mauritania,1, , , , ,1, ,0.2
St. Vincent Grenadines,1, , , , ,1, ,9
Somalia,1, , , , ,1, ,0.06
Suriname,1, , , , ,1, ,2
Eswatini,1, , , , ,1, ,0.9
Tanzania,1, , , , ,1, ,0.02
Togo,1, , , , ,1, ,0.1
Total:,198221,15752,7967,819,81698,108556,7019,25.4
