"Country,Other",TotalCases,NewCases,TotalDeaths,NewDeaths,TotalRecovered,ActiveCases,"Serious,Critical",Tot Cases/1M pop
China,80967,39,3248                                ,3,71150,6569,2136,56
Italy,41035,,3405                                ,,4440,33190,2498,679
Spain,19980,+1903,1002                                ,171,1588,17390,939,427
Iran,19644,+1237,1433                                ,149,6745,11466,,234
Germany,17653,+2333,48,4,180,17425,2,211
USA,14371,582,217,10,125,14029,64,43
France,10995,,372,,1295,9328,1122,168
S. Korea,8652,87,94,3,2233,6325,59,169
Switzerland,4898,676,43,,15,4840,,566
UK,3269,,144,,65,3060,20,48
Netherlands,2994,534,106,30,2,2886,45,175
Austria,2388,209,6,,9,2373,14,265
Belgium,2257,462,37,16,204,2016,164,195
Norway,1847,57,7,,1,1839,27,341
Sweden,1639,200,16,5,16,1607,21,162
Denmark,1226,75,9,3,1,1216,37,212
Malaysia,1030,130,3,1,87,940,26,32
Portugal,1020,234,6,2,5,1009,26,100
Japan,963,20,33,,215,715,50,8
Australia,876,120,7,,46,823,2,34
Canada,873,,12,,11,850,1,23
Czechia,774,80,                                ,,4,770,6,72
Diamond Princess,712,,7,,527,178,14,
Israel,705,28,                                ,,15,690,10,81
Brazil,650,10,7,,2,641,18,3
Ireland,557,,3,,5,549,6,113
Luxembourg,484,149,5,1,6,473,1,773
Pakistan,467,13,3,1,13,451,,2
Greece,464,,6,,19,439,16,45
Qatar,460,,                                ,,10,450,6,160
Finland,450,50,                                ,,10,440,2,81
Chile,434,92,                                ,,6,428,7,23
Iceland,409,79,                                ,,5,404,1,1199
Singapore,385,40,                                ,,131,254,14,66
Poland,378,23,6,1,13,359,3,10
Indonesia,369,60,32,7,17,320,,1
Turkey,359,,4,,,355,,4
Slovenia,341,22,1,,,340,6,164
Thailand,322,50,1,,42,279,1,5
Romania,308,31,                                ,,31,277,11,16
Bahrain,284,5,1,,110,173,4,167
Estonia,283,16,                                ,,1,282,1,213
Saudi Arabia,274,,                                ,,8,266,,8
Ecuador,260,,4,1,1,255,2,15
Egypt,256,,7,,42,207,,3
Hong Kong,256,48,4,,98,154,4,34
Russia,253,54,1,,12,240,,2
Peru,234,,3,2,1,230,7,7
Philippines,230,13,18,1,8,204,1,2
India,223,29,5,1,23,195,,0.2
South Africa,202,52,                                ,,,202,,3
Iraq,192,,13,,49,130,,5
Mexico,164,46,1,,4,159,1,1
Lebanon,163,6,4,,4,155,3,24
Kuwait,159,11,                                ,,22,137,5,37
San Marino,144,,14,,4,126,12,4244
UAE,140,,                                ,,31,109,2,14
Panama,137,,1,,1,135,7,32
Armenia,136,14,                                ,,1,135,2,46
Taiwan,135,27,2,1,28,105,,6
Argentina,128,,3,,3,122,,3
Colombia,128,20,                                ,,1,127,,3
Slovakia,124,,                                ,,,124,2,23
Serbia,118,15,                                ,,2,116,4,14
Croatia,113,3,1,,5,107,,28
Bulgaria,112,5,3,,1,108,,16
Latvia,111,25,                                ,,1,110,,59
Uruguay,94,15,                                ,,,94,,27
Vietnam,91,6,                                ,,17,74,,0.9
Algeria,90,,11,2,32,47,,2
Costa Rica,89,2,2,1,,87,2,17
Hungary,85,12,3,2,7,75,6,9
Faeroe Islands,80,8,                                ,,3,77,,1637
Brunei,78,5,                                ,,1,77,2,178
Andorra,75,1,                                ,,1,74,2,971
Sri Lanka,71,11,                                ,,3,68,,3
Albania,70,6,2,,,68,2,24
Belarus,69,18,                                ,,15,54,,7
Jordan,69,,                                ,,1,68,,7
Bosnia and Herzegovina,69,5,                                ,,2,67,1,21
North Macedonia,67,17,                                ,,1,66,1,32
Cyprus,67,,                                ,,,67,1,55
Morocco,66,3,3,1,2,61,1,2
Malta,64,11,                                ,,2,62,1,145
Tunisia,54,15,1,,1,52,2,5
Moldova,49,,1,,1,47,3,12
Kazakhstan,49,5,                                ,,,49,,3
Lithuania,49,1,                                ,,1,48,1,18
Oman,48,,                                ,,13,35,,9
Palestine,48,1,                                ,,17,31,,9
Cambodia,47,10,                                ,,1,46,,3
Guadeloupe,45,12,                                ,,,45,,112
Azerbaijan,44,,1,,7,36,,4
Georgia,43,3,                                ,,1,42,1,11
Venezuela,42,,                                ,,,42,,1
Burkina Faso,40,7,1,,4,35,,2
New Zealand,39,11,                                ,,,39,,8
Senegal,38,2,                                ,,2,36,,2
Dominican Republic,34,,2,,,32,,3
Uzbekistan,33,10,                                ,,,33,,1.0
Martinique,32,9,1,,,31,7,85
Liechtenstein,28,,                                ,,,28,,734
Réunion,28,,                                ,,,28,,31
Ukraine,26,,3,,1,22,,0.6
Afghanistan,24,2,                                ,,1,23,,0.6
Honduras,24,12,                                ,,,24,,2
Bangladesh,20,2,1,,3,16,1,0.1
Cameroon,20,7,                                ,,2,18,,0.8
DRC,18,4,                                ,,,18,,0.2
Macao,17,,                                ,,10,7,,26
Cuba,16,5,1,,,15,,1
Jamaica,16,1,1,,2,13,,5
Bolivia,16,1,                                ,,,16,,1
Ghana,16,5,                                ,,8,8,,0.5
French Guiana,15,,                                ,,,15,,50
Guam,14,2,                                ,,,14,,83
Maldives,13,,                                ,,,13,,24
Montenegro,13,,                                ,,,13,,21
Paraguay,13,,                                ,,,13,1,2
Nigeria,12,,                                ,,1,11,,0.06
Mauritius,12,5,                                ,,,12,,9
Monaco,11,1,                                ,,,11,,280
Channel Islands,11,,                                ,,,11,,63
French Polynesia,11,5,                                ,,,11,,39
Rwanda,11,,                                ,,,11,,0.8
Gibraltar,10,,                                ,,2,8,,297
Guatemala,9,,1,,,8,,0.5
Ivory Coast,9,,                                ,,1,8,,0.3
Ethiopia,9,2,                                ,,,9,,0.08
Togo,9,8,                                ,,,9,,1
Trinidad and Tobago,9,,                                ,,,9,,6
Puerto Rico,8,2,                                ,,,8,,3
Kenya,7,,                                ,,,7,,0.1
Seychelles,7,1,                                ,,,7,,71
Equatorial Guinea,6,,                                ,,,6,,4
Kyrgyzstan,6,3,                                ,,,6,,0.9
Mongolia,6,,                                ,,,6,,2
Tanzania,6,,                                ,,,6,,0.1
Guyana,5,,1,,,4,,6
Aruba,5,,                                ,,1,4,,47
Barbados,5,,                                ,,,5,,17
Mayotte,4,,                                ,,,4,,15
Suriname,4,3,                                ,,,4,,7
Cayman Islands,3,,1,,,2,,46
Curaçao,3,,1,,,2,,18
Gabon,3,,1,1,,2,,1
Bahamas,3,,                                ,,,3,,8
Congo,3,,                                ,,,3,,0.5
Namibia,3,,                                ,,,3,,1
St. Barth,3,,                                ,,,3,,304
Saint Martin,3,,                                ,,,3,,78
U.S. Virgin Islands,3,,                                ,,,3,,29
Sudan,2,,1,,,1,,0.05
Benin,2,,                                ,,,2,,0.2
Bermuda,2,,                                ,,,2,,32
Bhutan,2,1,                                ,,,2,,3
CAR,2,1,                                ,,,2,,0.4
Greenland,2,,                                ,,,2,,35
Haiti,2,2,                                ,,,2,,0.2
Liberia,2,,                                ,,,2,,0.4
Mauritania,2,,                                ,,,2,,0.4
New Caledonia,2,,                                ,,,2,,7
Saint Lucia,2,,                                ,,,2,,11
Zambia,2,,                                ,,,2,,0.1
Nepal,1,,                                ,,1,0,,0.03
Angola,1,1,                                ,,,1,,0.03
Antigua and Barbuda,1,,                                ,,,1,,10
Cabo Verde,1,1,                                ,,,1,,2
Chad,1,,                                ,,,1,,0.06
Djibouti,1,,                                ,,,1,,1
El Salvador,1,,                                ,,,1,,0.2
Fiji,1,,                                ,,,1,,1
Gambia,1,,                                ,,,1,,0.4
Guinea,1,,                                ,,,1,,0.08
Vatican City,1,,                                ,,,1,,1248
Isle of Man,1,,                                ,,,1,,12
Montserrat,1,,                                ,,,1,,200
Nicaragua,1,,                                ,,,1,,0.2
Niger,1,,                                ,,,1,,0.04
Papua New Guinea,1,1,                                ,,,1,,0.1
St. Vincent Grenadines,1,,                                ,,,1,,9
Sint Maarten,1,,                                ,,,1,,23
Somalia,1,,                                ,,,1,,0.06
Eswatini,1,,                                ,,,1,,0.9
Total:,255192,10298,10448,420,89918,154826,7467,32.7
CountryOther,TotalCases,NewCases,TotalDeaths,NewDeaths,TotalRecovered,ActiveCases,SeriousCritical,Tot Cases/1M pop
China,80928,34,3245                                ,8,70420,7263,2274,56
Italy,41035,+5322,3405                                ,427,4440,33190,2498,679
Iran,18407,+1046,1284                                ,149,5979,11144,,219
Spain,18077,+3308,831,193,1107,16139,939,387
Germany,15320,+2993,44,16,115,15161,2,183
USA,13789,+4530,207,57,108,13474,64,42
France,10995,+1861,372,108,1295,9328,1122,168
S. Korea,8565,152,91,7,1947,6527,59,167
Switzerland,4222,+1107,43,10,15,4164,,488
UK,3269,643,144,40,65,3060,20,48
Netherlands,2460,409,76,18,2,2382,45,144
Austria,2179,533,6,2,9,2164,13,242
Belgium,1795,309,21,7,165,1609,130,155
Norway,1790,199,7,1,1,1782,27,330
Sweden,1439,138,11,1,16,1412,21,142
Denmark,1151,94,6,2,1,1144,30,199
Japan,943,29,33,4,191,719,46,7
Malaysia,900,110,2,,75,823,15,28
Canada,873,146,12,3,11,850,1,23
Portugal,786,144,4,2,4,778,20,77
Australia,756,160,7,1,46,703,1,30
Diamond Princess,712,,7,,527,178,14,
Czechia,694,172,                                ,,3,691,6,65
Israel,677,244,                                ,,14,663,6,78
Brazil,640,111,7,3,2,631,18,3
Ireland,557,191,3,1,5,549,6,113
Greece,464,46,6,1,19,439,16,45
Qatar,460,8,                                ,,10,450,6,160
Pakistan,454,147,2,,13,439,,2
Finland,400,41,                                ,,10,390,2,72
Turkey,359,168,4,2,,355,,4
Poland,355,68,5,,13,337,3,9
Singapore,345,32,                                ,,124,221,14,59
Chile,342,104,                                ,,,342,6,18
Luxembourg,335,132,4,2,6,325,1,535
Iceland,330,80,                                ,,5,325,1,967
Slovenia,319,33,1,,,318,6,153
Indonesia,309,82,25,6,15,269,,1
Bahrain,279,23,1,,110,168,4,164
Romania,277,17,                                ,,25,252,5,14
Saudi Arabia,274,36,                                ,,8,266,,8
Thailand,272,60,1,,42,229,1,4
Estonia,267,9,                                ,,1,266,1,201
Ecuador,260,92,3,,1,256,2,15
Egypt,256,46,7,1,42,207,,3
Peru,234,89,1,1,1,232,7,7
Philippines,217,15,17,,8,192,1,2
Hong Kong,208,15,4,,98,106,4,28
Russia,199,52,1,1,8,190,,1
India,194,25,4,1,20,170,,0.1
Iraq,192,28,13,1,49,130,,5
Lebanon,157,24,4,,4,149,3,23
South Africa,150,34,                                ,,,150,,3
Kuwait,148,6,                                ,,18,130,5,35
San Marino,144,4,14,,4,126,12,4244
UAE,140,27,                                ,,31,109,2,14
Panama,137,28,1,,1,135,7,32
Argentina,128,31,3,1,3,122,,3
Slovakia,124,19,                                ,,,124,2,23
Armenia,122,12,                                ,,1,121,2,41
Mexico,118,25,1,1,4,113,1,0.9
Croatia,110,21,1,1,5,104,,27
Taiwan,108,8,1,,26,81,,5
Colombia,108,15,                                ,,1,107,,2
Bulgaria,107,15,3,1,,104,,15
Serbia,103,14,                                ,,1,102,4,12
Algeria,90,15,9,2,32,49,,2
Costa Rica,87,18,1,,,86,2,17
Latvia,86,15,                                ,,1,85,,46
Vietnam,85,9,                                ,,16,69,,0.9
Uruguay,79,,                                ,,,79,,23
Andorra,74,21,                                ,,1,73,,958
Hungary,73,15,1,,2,70,4,8
Brunei,73,5,                                ,,,73,2,167
Faeroe Islands,72,14,                                ,,1,71,,1474
Jordan,69,13,                                ,,1,68,,7
Cyprus,67,9,                                ,,,67,1,55
Albania,64,5,2,,,62,2,22
Bosnia and Herzegovina,64,25,                                ,,2,62,,20
Morocco,63,9,2,,2,59,1,2
Sri Lanka,60,9,                                ,,3,57,,3
Malta,53,5,                                ,,2,51,,120
Belarus,51,,                                ,,5,46,,5
North Macedonia,50,7,                                ,,1,49,1,24
Moldova,49,13,1,,1,47,3,12
Lithuania,48,14,                                ,,1,47,1,18
Oman,48,9,                                ,,13,35,,9
Palestine,47,3,                                ,,,47,,9
Azerbaijan,44,10,1,,7,36,,4
Kazakhstan,44,8,                                ,,,44,,2
Venezuela,42,6,                                ,,,42,,1
Georgia,40,2,                                ,,1,39,1,10
Tunisia,39,10,1,1,1,37,2,3
Cambodia,37,,                                ,,1,36,,2
Senegal,36,,                                ,,2,34,,2
Dominican Republic,34,,2,,,32,,3
Burkina Faso,33,6,1,,,32,,2
Guadeloupe,33,,                                ,,,33,,82
New Zealand,28,8,                                ,,,28,,6
Liechtenstein,28,,                                ,,,28,,734
Réunion,28,14,                                ,,,28,,31
Ukraine,26,10,3,1,,23,,0.6
Martinique,23,,1,,,22,4,61
Uzbekistan,23,5,                                ,,,23,,0.7
Afghanistan,22,,                                ,,1,21,,0.6
Bangladesh,18,4,1,,3,14,,0.1
Macao,17,,                                ,,10,7,,26
Jamaica,15,,1,,2,12,,5
Bolivia,15,3,                                ,,,15,,1
French Guiana,15,,                                ,,,15,,50
DRC,14,7,                                ,,,14,,0.2
Cameroon,13,,                                ,,,13,,0.5
Maldives,13,,                                ,,,13,,24
Montenegro,13,5,                                ,,,13,,21
Paraguay,13,2,                                ,,,13,1,2
Nigeria,12,4,                                ,,1,11,,0.06
Guam,12,4,                                ,,,12,,71
Honduras,12,3,                                ,,,12,,1
Cuba,11,1,1,,,10,,1.0
Channel Islands,11,4,                                ,,,11,,63
Ghana,11,4,                                ,,,11,,0.4
Rwanda,11,,                                ,,,11,,0.8
Monaco,10,1,                                ,,,10,,255
Gibraltar,10,2,                                ,,2,8,,297
Guatemala,9,1,1,,,8,,0.5
Ivory Coast,9,,                                ,,1,8,,0.3
Trinidad and Tobago,9,2,                                ,,,9,,6
Ethiopia,7,1,                                ,,,7,,0.06
Kenya,7,,                                ,,,7,,0.1
Mauritius,7,4,                                ,,,7,,6
Equatorial Guinea,6,2,                                ,,,6,,4
French Polynesia,6,1,                                ,,,6,,21
Mongolia,6,,                                ,,,6,,2
Puerto Rico,6,,                                ,,,6,,2
Seychelles,6,,                                ,,,6,,61
Tanzania,6,3,                                ,,,6,,0.1
Guyana,5,1,1,,,4,,6
Aruba,5,1,                                ,,1,4,,47
Barbados,5,3,                                ,,,5,,17
Mayotte,4,1,                                ,,,4,,15
Cayman Islands,3,2,1,,,2,,46
Curaçao,3,,1,1,,2,,18
Bahamas,3,2,                                ,,,3,,8
Congo,3,2,                                ,,,3,,0.5
Gabon,3,,                                ,,,3,,1
Kyrgyzstan,3,,                                ,,,3,,0.5
Namibia,3,1,                                ,,,3,,1
St. Barth,3,,                                ,,,3,,304
Saint Martin,3,,                                ,,,3,,78
U.S. Virgin Islands,3,1,                                ,,,3,,29
Sudan,2,,1,,,1,,0.05
Benin,2,,                                ,,,2,,0.2
Bermuda,2,,                                ,,,2,,32
Greenland,2,,                                ,,,2,,35
Liberia,2,,                                ,,,2,,0.4
Mauritania,2,,                                ,,,2,,0.4
New Caledonia,2,,                                ,,,2,,7
Saint Lucia,2,,                                ,,,2,,11
Zambia,2,,                                ,,,2,,0.1
Nepal,1,,                                ,,1,0,,0.03
Antigua and Barbuda,1,,                                ,,,1,,10
Bhutan,1,,                                ,,,1,,1
CAR,1,,                                ,,,1,,0.2
Chad,1,1,                                ,,,1,,0.06
Djibouti,1,,                                ,,,1,,1
El Salvador,1,1,                                ,,,1,,0.2
Fiji,1,1,                                ,,,1,,1
Gambia,1,,                                ,,,1,,0.4
Guinea,1,,                                ,,,1,,0.08
Vatican City,1,,                                ,,,1,,1248
Isle of Man,1,1,                                ,,,1,,12
Montserrat,1,,                                ,,,1,,200
Nicaragua,1,1,                                ,,,1,,0.2
Niger,1,1,                                ,,,1,,0.04
St. Vincent Grenadines,1,,                                ,,,1,,9
Sint Maarten,1,,                                ,,,1,,23
Somalia,1,,                                ,,,1,,0.06
Suriname,1,,                                ,,,1,,2
Eswatini,1,,                                ,,,1,,0.9
Togo,1,,                                ,,,1,,0.1
Total:,244894,26106,10028,1085,87408,147458,7520,31.4
