,"Country,Other",TotalCases
0,China,80796.0
1,Italy,15113.0
2,Iran,10075.0
3,S. Korea,7869.0
4,Spain,3146.0
5,France,2876.0
6,Germany,2745.0
7,USA,1715.0
8,Switzerland,868.0
9,Norway,800.0
10,Diamond Princess,696.0
11,Japan,691.0
12,Sweden,687.0
13,Denmark,674.0
14,Netherlands,614.0
15,UK,590.0
16,Belgium,399.0
17,Austria,361.0
18,Qatar,262.0
19,Bahrain,197.0
20,Singapore,187.0
21,Malaysia,158.0
22,Australia,156.0
23,Canada,142.0
24,Hong Kong,130.0
25,Greece,117.0
26,Czechia,113.0
27,Finland,109.0
28,Iceland,109.0
29,Israel,109.0
30,Slovenia,96.0
31,UAE,85.0
32,Iraq,83.0
33,Egypt,80.0
34,Kuwait,80.0
35,Portugal,78.0
36,Brazil,77.0
37,India,74.0
38,San Marino,72.0
39,Ireland,70.0
40,Thailand,70.0
41,Lebanon,68.0
42,Romania,59.0
43,Philippines,52.0
44,Poland,51.0
45,Taiwan,49.0
46,Saudi Arabia,45.0
47,Vietnam,39.0
48,Indonesia,34.0
49,Russia,34.0
50,Chile,33.0
51,Palestine,31.0
52,Argentina,30.0
53,Croatia,27.0
54,Estonia,27.0
55,Algeria,26.0
56,Luxembourg,26.0
57,Georgia,25.0
58,Brunei,25.0
59,Serbia,24.0
60,Albania,23.0
61,Bulgaria,23.0
62,Costa Rica,23.0
63,Peru,22.0
64,Belarus,21.0
65,Pakistan,21.0
66,Slovakia,21.0
67,Oman,18.0
68,Ecuador,17.0
69,South Africa,17.0
70,Latvia,16.0
71,Hungary,16.0
72,Azerbaijan,15.0
73,Panama,14.0
74,Tunisia,13.0
75,Mexico,12.0
76,Bosnia and Herzegovina,11.0
77,Macao,10.0
78,Senegal,10.0
79,Cyprus,10.0
80,North Macedonia,9.0
81,Colombia,9.0
82,Malta,9.0
83,Maldives,8.0
84,Afghanistan,7.0
85,Morocco,6.0
86,Armenia,6.0
87,French Guiana,6.0
88,Moldova,6.0
89,Cambodia,5.0
90,Dominican Republic,5.0
91,New Zealand,5.0
92,Paraguay,5.0
93,Liechtenstein,4.0
94,Reunion,4.0
95,Lithuania,3.0
96,Sri Lanka,3.0
97,Ukraine,3.0
98,Bangladesh,3.0
99,Bolivia,3.0
100,Channel Islands,3.0
101,Cuba,3.0
102,Martinique,3.0
103,Nigeria,2.0
104,Burkina Faso,2.0
105,Cameroon,2.0
106,Faeroe Islands,2.0
107,Ghana,2.0
108,Honduras,2.0
109,Jamaica,2.0
110,Saint Martin,2.0
111,Guyana,1.0
112,Andorra,1.0
113,Jordan,1.0
114,Monaco,1.0
115,Nepal,1.0
116,Bhutan,1.0
117,Ivory Coast,1.0
118,DRC,1.0
119,French Polynesia,1.0
120,Gibraltar,1.0
121,Vatican City,1.0
122,Mongolia,1.0
123,St. Barth,1.0
124,St. Vincent Grenadines,1.0
125,Togo,1.0
126,Trinidad and Tobago,1.0
127,Turkey,1.0
