"Country,Other",TotalCases,NewCases,TotalDeaths,NewDeaths,TotalRecovered,ActiveCases,"Serious,Critical",Tot Cases/1M pop
China,81008,41,3255                                ,7,71740,6013,1927,56
Italy,47021,,4032                                ,,5129,37860,2655,778
Spain,24926,+3355,1326                                ,233,2125,21475,939,533
Iran,20610,966,1556                                ,123,7635,11419,,245
Germany,20142,294,70,2,180,19892,2,240
USA,19774,391,275,19,147,19352,64,60
France,12612,,450,,1587,10575,1297,193
S. Korea,8799,147,102,8,2612,6085,59,172
Switzerland,5711,96,57,1,15,5639,141,660
UK,3983,,177,,65,3741,20,59
Netherlands,2994,,106,,2,2886,210,175
Belgium,2815,558,67,30,263,2485,288,243
Austria,2695,46,7,1,9,2679,14,299
Norway,1995,36,7,,1,1987,27,368
Sweden,1657,18,16,,16,1625,69,164
Denmark,1326,71,13,4,1,1312,42,229
Malaysia,1183,153,4,1,114,1065,26,37
Canada,1087,,12,,14,1061,1,29
Australia,1068,140,7,,46,1015,2,42
Portugal,1020,,7,1,5,1008,26,100
Japan,1007,,35,,215,757,50,8
Brazil,977,7,11,,2,964,18,5
Czechia,904,71,                                ,,4,900,6,84
Israel,883,178,1,,36,846,15,102
Diamond Princess,712,,8,,567,137,15,
Ireland,683,,3,,5,675,6,138
Turkey,670,,9,,,661,,8
Pakistan,534,33,3,,13,518,,2
Finland,503,53,                                ,,10,493,2,91
Greece,495,,10,,19,466,20,47
Luxembourg,484,,5,,6,473,1,773
Iceland,473,64,                                ,,5,468,1,1386
Qatar,470,,                                ,,10,460,6,163
Indonesia,450,81,38,6,20,392,,2
Poland,439,14,5,,13,421,3,12
Chile,434,,                                ,,6,428,7,23
Ecuador,426,,7,,3,416,2,24
Thailand,411,89,1,,42,368,1,6
Singapore,385,,2,2,131,252,14,66
Romania,367,59,                                ,,52,315,14,19
Saudi Arabia,344,,                                ,,8,336,,10
Slovenia,341,,1,,,340,9,164
Philippines,307,77,19,1,13,275,1,3
Estonia,306,23,                                ,,1,305,1,231
Bahrain,298,,1,,125,172,4,175
Egypt,285,,8,,42,235,,3
India,275,26,5,,23,247,,0.2
Hong Kong,273,17,4,,98,171,4,36
Peru,263,,4,,1,258,5,8
Russia,253,,1,,12,240,,2
South Africa,240,38,                                ,,1,239,,4
Iraq,208,,17,,49,142,,5
Mexico,203,39,2,1,4,197,1,2
Panama,200,,1,,1,198,7,46
Lebanon,187,10,4,,8,175,3,27
Kuwait,176,17,                                ,,27,149,5,41
Croatia,168,38,1,,5,162,,41
Armenia,160,24,                                ,,1,159,2,54
Argentina,158,,3,,3,152,,3
Colombia,158,13,                                ,,1,157,,3
Taiwan,153,18,2,,28,123,,6
San Marino,151,,14,,4,133,12,4450
Serbia,149,14,1,,2,146,4,17
Bulgaria,142,15,3,,3,136,3,20
UAE,140,,2,,31,107,2,14
Slovakia,137,,                                ,,7,130,2,25
Latvia,124,13,                                ,,1,123,,66
Costa Rica,113,,2,,2,109,2,22
Uruguay,110,,                                ,,,110,,32
Hungary,103,18,4,,7,92,6,11
Algeria,95,1,11,,32,52,,2
Vietnam,92,1,                                ,,17,75,2,0.9
Faeroe Islands,92,12,                                ,,3,89,,1883
Bosnia and Herzegovina,90,1,                                ,,2,88,1,27
Morocco,86,,3,,2,81,1,2
Jordan,84,,                                ,,1,83,,8
Brunei,83,5,                                ,,1,82,2,190
North Macedonia,77,1,                                ,,1,76,1,37
Albania,76,6,2,,2,72,2,26
Sri Lanka,76,3,                                ,,3,73,2,4
Andorra,75,,                                ,,1,74,2,971
Cyprus,75,,                                ,,,75,1,62
Dominican Republic,72,,2,,,70,,7
Lithuania,69,,1,,1,67,1,25
Belarus,69,,                                ,,15,54,,7
Moldova,66,,1,,1,64,3,16
Venezuela,65,,                                ,,1,64,,2
Burkina Faso,64,24,3,2,5,56,,3
Malta,64,,                                ,,2,62,1,145
Tunisia,60,6,1,,1,58,7,5
Kazakhstan,53,1,                                ,,,53,,3
New Zealand,52,,                                ,,,52,,11
Oman,52,4,                                ,,13,39,,10
Palestine,52,4,                                ,,17,35,,10
Guadeloupe,51,,1,,,50,4,127
Cambodia,51,,                                ,,1,50,,3
Georgia,47,3,                                ,,1,46,1,12
Senegal,47,,                                ,,5,42,,3
Réunion,45,7,                                ,,,45,,50
Azerbaijan,44,,1,,7,36,,4
Ukraine,41,,3,,1,37,,0.9
Liechtenstein,37,9,                                ,,,37,,970
Uzbekistan,37,4,                                ,,,37,,1
Martinique,32,,1,,,31,7,85
Cameroon,27,,                                ,,2,25,,1
Bangladesh,24,4,2,1,3,19,,0.1
Afghanistan,24,,                                ,,1,23,,0.6
Honduras,24,,                                ,,,24,,2
DRC,23,5,1,1,,22,,0.3
Cuba,21,,1,,,20,,2
Jamaica,19,,1,,2,16,,6
Bolivia,19,3,                                ,,,19,,2
Ghana,19,3,                                ,,,19,,0.6
Paraguay,18,,1,1,,17,1,3
Macao,17,,                                ,,10,7,,26
Rwanda,17,,                                ,,,17,,1
Guyana,15,,1,,,14,,19
French Guiana,15,,                                ,,,15,,50
French Polynesia,15,4,                                ,,,15,,53
Mauritius,14,2,1,1,,13,,11
Channel Islands,14,2,                                ,,,14,,81
Ivory Coast,14,5,                                ,,1,13,,0.5
Guam,14,,                                ,,,14,,83
Montenegro,14,,                                ,,,14,,22
Puerto Rico,14,,                                ,,,14,,5
Guatemala,13,1,1,,,12,,0.7
Maldives,13,,                                ,,2,11,,24
Nigeria,12,,                                ,,1,11,,0.06
Kyrgyzstan,12,6,                                ,,,12,,2
Monaco,11,,                                ,,,11,,280
Gibraltar,10,,                                ,,2,8,,297
Mongolia,10,4,                                ,,,10,,3
Ethiopia,9,,                                ,,,9,,0.08
Togo,9,,                                ,,,9,,1
Trinidad and Tobago,9,,                                ,,,9,,6
Kenya,7,,                                ,,,7,,0.1
Mayotte,7,,                                ,,,7,,26
Seychelles,7,,                                ,,,7,,71
Barbados,6,,                                ,,,6,,21
Equatorial Guinea,6,,                                ,,,6,,4
Tanzania,6,,                                ,,,6,,0.1
U.S. Virgin Islands,6,3,                                ,,,6,,57
Aruba,5,,                                ,,1,4,,47
Gabon,4,,1,,,3,,2
Bahamas,4,,                                ,,,4,,10
New Caledonia,4,2,                                ,,,4,,14
Saint Martin,4,,                                ,,,4,,103
Suriname,4,,                                ,,,4,,7
Cayman Islands,3,,1,,,2,,46
Curaçao,3,,1,,,2,,18
CAR,3,,                                ,,,3,,0.6
Congo,3,,                                ,,,3,,0.5
El Salvador,3,2,                                ,,,3,,0.5
Liberia,3,1,                                ,,,3,,0.6
Madagascar,3,,                                ,,,3,,0.1
Namibia,3,,                                ,,,3,,1
St. Barth,3,,                                ,,,3,,304
Zimbabwe,3,2,                                ,,,3,,0.2
Sudan,2,,1,,,1,,0.05
Angola,2,1,                                ,,,2,,0.06
Benin,2,,                                ,,,2,,0.2
Bermuda,2,,                                ,,,2,,32
Bhutan,2,,                                ,,,2,,3
Fiji,2,1,                                ,,,2,,2
Greenland,2,,                                ,,,2,,35
Guinea,2,,                                ,,,2,,0.2
Haiti,2,,                                ,,,2,,0.2
Isle of Man,2,,                                ,,,2,,24
Mauritania,2,,                                ,,,2,,0.4
Nicaragua,2,,                                ,,,2,,0.3
Saint Lucia,2,,                                ,,,2,,11
Zambia,2,,                                ,,,2,,0.1
Nepal,1,,                                ,,1,0,,0.03
Antigua and Barbuda,1,,                                ,,,1,,10
Cabo Verde,1,,                                ,,,1,,2
Chad,1,,                                ,,,1,,0.06
Djibouti,1,,                                ,,,1,,1
Gambia,1,,                                ,,,1,,0.4
Vatican City,1,,                                ,,,1,,1248
Montserrat,1,,                                ,,,1,,200
Niger,1,,                                ,,,1,,0.04
Papua New Guinea,1,,                                ,,,1,,0.1
St. Vincent Grenadines,1,,                                ,,,1,,9
Sint Maarten,1,,                                ,,,1,,23
Somalia,1,,                                ,,,1,,0.06
Eswatini,1,,                                ,,,1,,0.9
Timor-Leste,1,1,                                ,,,1,,0.8
Total:,283061,7505,11826,446,93535,177700,8102,36.3
CountryOther,TotalCases,NewCases,TotalDeaths,NewDeaths,TotalRecovered,ActiveCases,SeriousCritical,Tot Cases/1M pop
China,80967,39,3248                                ,3,71150,6569,2136,56
Italy,47021,+5986,4032                                ,627,5129,37860,2655,778
Spain,21571,+3494,1093                                ,262,1588,18890,939,461
Germany,19848,+4528,68,24,180,19600,2,237
Iran,19644,+1237,1433                                ,149,6745,11466,,234
USA,19383,+5594,256,49,147,18980,64,59
France,12612,+1617,450,78,1587,10575,1297,193
S. Korea,8652,87,94,3,2233,6325,59,169
Switzerland,5615,+1393,56,13,15,5544,141,649
UK,3983,714,177,33,65,3741,20,59
Netherlands,2994,534,106,30,2,2886,210,175
Austria,2649,470,6,,9,2634,14,294
Belgium,2257,462,37,16,204,2016,164,195
Norway,1959,169,7,,1,1951,27,361
Sweden,1639,200,16,5,16,1607,21,162
Denmark,1255,104,9,3,1,1245,37,217
Canada,1087,214,12,,14,1061,1,29
Malaysia,1030,130,3,1,87,940,26,32
Portugal,1020,234,6,2,5,1009,26,100
Japan,1007,64,35,2,215,757,50,8
Brazil,970,330,11,4,2,957,18,5
Australia,928,172,7,,46,875,2,36
Czechia,833,139,                                ,,4,829,6,78
Diamond Princess,712,,8,1,567,137,15,
Israel,705,28,1,1,15,689,10,81
Ireland,683,126,3,,5,675,6,138
Turkey,670,311,9,5,,661,,8
Pakistan,501,47,3,1,13,485,,2
Greece,495,31,10,4,19,466,20,47
Luxembourg,484,149,5,1,6,473,1,773
Qatar,470,10,                                ,,10,460,6,163
Finland,450,50,                                ,,10,440,2,81
Chile,434,92,                                ,,6,428,7,23
Ecuador,426,166,7,4,3,416,2,24
Poland,425,70,5,,13,407,3,11
Iceland,409,79,                                ,,5,404,1,1199
Singapore,385,40,                                ,,131,254,14,66
Indonesia,369,60,32,7,17,320,,1
Saudi Arabia,344,70,                                ,,8,336,,10
Slovenia,341,22,1,,,340,9,164
Thailand,322,50,1,,42,279,1,5
Romania,308,31,                                ,,31,277,11,16
Bahrain,298,19,1,,125,172,4,175
Egypt,285,29,8,1,42,235,,3
Estonia,283,16,                                ,,1,282,1,213
Peru,263,29,4,3,1,258,5,8
Hong Kong,256,48,4,,98,154,4,34
Russia,253,54,1,,12,240,,2
India,249,55,5,1,23,221,,0.2
Philippines,230,13,18,1,8,204,1,2
Iraq,208,16,17,4,49,142,,5
South Africa,202,52,                                ,,,202,,3
Panama,200,63,1,,1,198,7,46
Lebanon,177,20,4,,4,169,3,26
Mexico,164,46,1,,4,159,1,1
Kuwait,159,11,                                ,,22,137,5,37
Argentina,158,30,3,,3,152,,3
San Marino,151,7,14,,4,133,12,4450
Colombia,145,37,                                ,,1,144,,3
UAE,140,,2,2,31,107,2,14
Slovakia,137,13,                                ,,,137,2,25
Armenia,136,14,                                ,,1,135,2,46
Taiwan,135,27,2,1,28,105,,6
Serbia,135,32,1,1,2,132,4,15
Croatia,130,20,1,,5,124,,32
Bulgaria,127,20,3,,1,123,,18
Costa Rica,113,26,2,1,2,109,2,22
Latvia,111,25,                                ,,1,110,,59
Uruguay,110,31,                                ,,,110,,32
Algeria,94,4,11,2,32,51,,2
Vietnam,91,6,                                ,,17,74,,0.9
Bosnia and Herzegovina,89,25,                                ,,2,87,1,27
Morocco,86,23,3,1,2,81,1,2
Hungary,85,12,4,3,7,74,6,9
Jordan,85,16,                                ,,1,84,,8
Faeroe Islands,80,8,                                ,,3,77,,1637
Brunei,78,5,                                ,,1,77,2,178
North Macedonia,76,26,                                ,,1,75,1,36
Andorra,75,1,                                ,,1,74,2,971
Cyprus,75,8,                                ,,,75,1,62
Sri Lanka,73,13,                                ,,3,70,,3
Dominican Republic,72,38,2,,,70,,7
Albania,70,6,2,,2,66,2,24
Lithuania,69,21,1,1,1,67,1,25
Belarus,69,18,                                ,,15,54,,7
Moldova,66,17,1,,1,64,3,16
Venezuela,65,23,                                ,,1,64,,2
Malta,64,11,                                ,,2,62,1,145
Tunisia,54,15,1,,1,52,7,5
Kazakhstan,52,8,                                ,,,52,,3
New Zealand,52,24,                                ,,,52,,11
Guadeloupe,51,18,1,1,,50,4,127
Cambodia,51,14,                                ,,1,50,,3
Oman,48,,                                ,,13,35,,9
Palestine,48,1,                                ,,17,31,,9
Senegal,47,11,                                ,,5,42,,3
Azerbaijan,44,,1,,7,36,,4
Georgia,44,4,                                ,,1,43,1,11
Ukraine,41,15,3,,1,37,,0.9
Burkina Faso,40,7,1,,4,35,,2
Réunion,38,10,                                ,,,38,,42
Uzbekistan,33,10,                                ,,,33,,1.0
Martinique,32,9,1,,,31,7,85
Liechtenstein,28,,                                ,,,28,,734
Cameroon,27,14,                                ,,2,25,,1
Afghanistan,24,2,                                ,,1,23,,0.6
Honduras,24,12,                                ,,,24,,2
Cuba,21,10,1,,,20,,2
Bangladesh,20,2,1,,3,16,1,0.1
Jamaica,19,4,1,,2,16,,6
DRC,18,4,                                ,,,18,,0.2
Paraguay,18,5,                                ,,,18,1,3
Macao,17,,                                ,,10,7,,26
Rwanda,17,6,                                ,,,17,,1
Bolivia,16,1,                                ,,,16,,1
Ghana,16,5,                                ,,,16,,0.5
Guyana,15,10,1,,,14,,19
French Guiana,15,,                                ,,,15,,50
Guam,14,2,                                ,,,14,,83
Montenegro,14,1,                                ,,,14,,22
Puerto Rico,14,8,                                ,,,14,,5
Maldives,13,,                                ,,2,11,,24
Guatemala,12,3,1,,,11,,0.7
Nigeria,12,,                                ,,1,11,,0.06
Channel Islands,12,1,                                ,,,12,,69
Mauritius,12,5,                                ,,,12,,9
Monaco,11,1,                                ,,,11,,280
French Polynesia,11,5,                                ,,,11,,39
Gibraltar,10,,                                ,,2,8,,297
Ivory Coast,9,,                                ,,1,8,,0.3
Ethiopia,9,2,                                ,,,9,,0.08
Togo,9,8,                                ,,,9,,1
Trinidad and Tobago,9,,                                ,,,9,,6
Kenya,7,,                                ,,,7,,0.1
Mayotte,7,3,                                ,,,7,,26
Seychelles,7,1,                                ,,,7,,71
Barbados,6,1,                                ,,,6,,21
Equatorial Guinea,6,,                                ,,,6,,4
Kyrgyzstan,6,3,                                ,,,6,,0.9
Mongolia,6,,                                ,,,6,,2
Tanzania,6,,                                ,,,6,,0.1
Aruba,5,,                                ,,1,4,,47
Gabon,4,1,1,1,,3,,2
Bahamas,4,1,                                ,,,4,,10
Saint Martin,4,1,                                ,,,4,,103
Suriname,4,3,                                ,,,4,,7
Cayman Islands,3,,1,,,2,,46
Curaçao,3,,1,,,2,,18
CAR,3,2,                                ,,,3,,0.6
Congo,3,,                                ,,,3,,0.5
Madagascar,3,3,                                ,,,3,,0.1
Namibia,3,,                                ,,,3,,1
St. Barth,3,,                                ,,,3,,304
U.S. Virgin Islands,3,,                                ,,,3,,29
Sudan,2,,1,,,1,,0.05
Benin,2,,                                ,,,2,,0.2
Bermuda,2,,                                ,,,2,,32
Bhutan,2,1,                                ,,,2,,3
Greenland,2,,                                ,,,2,,35
Guinea,2,1,                                ,,,2,,0.2
Haiti,2,2,                                ,,,2,,0.2
Isle of Man,2,1,                                ,,,2,,24
Liberia,2,,                                ,,,2,,0.4
Mauritania,2,,                                ,,,2,,0.4
New Caledonia,2,,                                ,,,2,,7
Nicaragua,2,1,                                ,,,2,,0.3
Saint Lucia,2,,                                ,,,2,,11
Zambia,2,,                                ,,,2,,0.1
Nepal,1,,                                ,,1,0,,0.03
Angola,1,1,                                ,,,1,,0.03
Antigua and Barbuda,1,,                                ,,,1,,10
Cabo Verde,1,1,                                ,,,1,,2
Chad,1,,                                ,,,1,,0.06
Djibouti,1,,                                ,,,1,,1
El Salvador,1,,                                ,,,1,,0.2
Fiji,1,,                                ,,,1,,1
Gambia,1,,                                ,,,1,,0.4
Vatican City,1,,                                ,,,1,,1248
Montserrat,1,,                                ,,,1,,200
Niger,1,,                                ,,,1,,0.04
Papua New Guinea,1,1,                                ,,,1,,0.1
St. Vincent Grenadines,1,,                                ,,,1,,9
Sint Maarten,1,,                                ,,,1,,23
Somalia,1,,                                ,,,1,,0.06
Eswatini,1,,                                ,,,1,,0.9
Zimbabwe,1,1,                                ,,,1,,0.07
Total:,275557,30663,11380,1352,90983,173194,8120,35.4
