"Country,Other",TotalCases,NewCases,TotalDeaths,NewDeaths,TotalRecovered,ActiveCases,"Serious,Critical",Tot Cases/1M pop
China,80928,34,3245                                ,8,70420,7263,2274,56
Italy,35713,,2978                                ,,4025,28710,2257,591
Iran,17361,,1135                                ,,5710,10516,,207
Spain,14769,,638,,1081,13050,800,316
Germany,12343,16,28,,105,12210,2,147
USA,9464,205,155,5,108,9201,64,29
France,9134,,264,,602,8268,931,140
S. Korea,8565,152,91,7,1947,6527,59,167
Switzerland,3115,,33,,15,3067,,360
UK,2626,,104,,65,2457,20,39
Netherlands,2051,,58,,2,1991,45,120
Austria,1843,197,5,1,9,1829,12,205
Norway,1599,8,6,,1,1592,27,295
Belgium,1486,,14,,31,1441,33,128
Sweden,1301,,10,,15,1276,21,129
Denmark,1132,75,6,2,1,1125,24,195
Japan,923,9,32,3,191,700,46,7
Malaysia,900,110,2,,75,823,15,28
Canada,727,,9,,12,706,1,19
Diamond Princess,712,,7,,527,178,14,
Australia,687,91,6,,43,638,1,27
Portugal,642,,2,,4,636,18,63
Czechia,572,50,                                ,,3,569,5,53
Brazil,529,,4,,2,523,18,2
Israel,529,96,                                ,,13,516,6,61
Qatar,452,,                                ,,4,448,,157
Greece,418,,5,,14,399,13,40
Ireland,366,,2,,5,359,6,74
Finland,359,,                                ,,10,349,2,65
Luxembourg,335,132,4,2,,331,1,535
Singapore,313,,                                ,,117,196,14,54
Indonesia,311,84,25,6,11,275,,1
Pakistan,307,,2,,13,292,,1
Poland,305,18,5,,13,287,3,8
Slovenia,286,,1,,,285,6,138
Thailand,272,60,1,,42,229,1,4
Romania,260,,                                ,,19,241,5,14
Estonia,258,,                                ,,1,257,1,194
Bahrain,256,,1,,95,160,4,150
Iceland,250,,                                ,,5,245,1,733
Saudi Arabia,238,,                                ,,6,232,,7
Chile,238,,                                ,,,238,3,12
Egypt,210,,6,,28,176,,2
Philippines,202,,17,,7,178,1,2
Hong Kong,193,,4,,95,94,4,26
Turkey,191,,2,,,189,,2
India,174,5,3,,15,156,,0.1
Ecuador,168,,3,,1,164,2,10
Iraq,164,,12,,43,109,,4
Kuwait,148,6,                                ,,18,130,5,35
Russia,147,,1,1,8,138,,1
Peru,145,,                                ,,1,144,8,4
San Marino,140,,14,,4,122,11,4126
Lebanon,139,6,4,,4,131,3,20
Mexico,118,25,1,1,4,113,1,0.9
South Africa,116,,                                ,,,116,,2
Armenia,115,5,                                ,,1,114,2,39
UAE,113,,                                ,,26,87,2,11
Slovakia,111,6,                                ,,,111,2,20
Panama,109,,1,,,108,7,25
Taiwan,108,8,1,,26,81,,5
Colombia,102,9,                                ,,1,101,,2
Croatia,99,10,                                ,,5,94,,24
Argentina,97,,3,1,3,91,,2
Serbia,97,8,                                ,,1,96,4,11
Bulgaria,94,2,3,1,,91,,14
Latvia,86,15,                                ,,1,85,,46
Algeria,82,7,8,1,32,42,,2
Uruguay,79,,                                ,,,79,,23
Vietnam,76,,                                ,,16,60,,0.8
Hungary,73,15,1,,2,70,4,8
Faeroe Islands,72,14,                                ,,1,71,,1474
Costa Rica,69,,1,,,68,2,14
Brunei,68,,                                ,,,68,2,155
Albania,59,,2,,,57,2,21
Cyprus,58,,                                ,,,58,1,48
Jordan,56,,                                ,,1,55,,5
Morocco,54,,2,,1,51,1,1
Andorra,53,,                                ,,1,52,,686
Sri Lanka,53,2,                                ,,3,50,,2
Belarus,51,,                                ,,5,46,,5
Malta,48,,                                ,,2,46,,109
Kazakhstan,44,8,                                ,,,44,,2
Palestine,44,,                                ,,,44,,9
North Macedonia,43,,                                ,,1,42,1,21
Georgia,40,2,                                ,,1,39,1,10
Oman,39,,                                ,,13,26,,8
Bosnia and Herzegovina,39,,                                ,,2,37,,12
Cambodia,37,,                                ,,1,36,,2
Moldova,36,,1,,1,34,2,9
Senegal,36,,                                ,,2,34,,2
Venezuela,36,,                                ,,,36,,1
Dominican Republic,34,,2,,,32,,3
Azerbaijan,34,,1,,7,26,,3
Lithuania,34,,                                ,,1,33,1,12
Guadeloupe,33,,                                ,,,33,,82
Tunisia,29,,                                ,,1,28,2,2
New Zealand,28,8,                                ,,,28,,6
Liechtenstein,28,,                                ,,,28,,734
Burkina Faso,27,,1,,,26,,1
Martinique,23,,1,,,22,,61
Uzbekistan,23,5,                                ,,,23,,0.7
Afghanistan,22,,                                ,,1,21,,0.6
Bangladesh,17,3,1,,3,13,,0.1
Macao,17,,                                ,,10,7,,26
Ukraine,16,,2,,,14,,0.4
Jamaica,15,,1,,2,12,,5
French Guiana,15,,                                ,,,15,,50
DRC,14,7,                                ,,,14,,0.2
Réunion,14,,                                ,,,14,,16
Cameroon,13,,                                ,,,13,,0.5
Maldives,13,,                                ,,,13,,24
Bolivia,12,,                                ,,,12,,1
Honduras,12,3,                                ,,,12,,1
Cuba,11,1,1,,,10,,1.0
Paraguay,11,,                                ,,,11,1,2
Rwanda,11,,                                ,,,11,,0.8
Monaco,9,,                                ,,,9,,229
Ivory Coast,9,,                                ,,1,8,,0.3
Ghana,9,2,                                ,,,9,,0.3
Trinidad and Tobago,9,2,                                ,,,9,,6
Guatemala,8,,1,,,7,,0.4
Nigeria,8,,                                ,,1,7,,0.04
Gibraltar,8,,                                ,,2,6,,237
Guam,8,,                                ,,,8,,47
Montenegro,8,,                                ,,,8,,13
Channel Islands,7,,                                ,,,7,,40
Kenya,7,,                                ,,,7,,0.1
Ethiopia,6,,                                ,,,6,,0.05
French Polynesia,6,1,                                ,,,6,,21
Mongolia,6,,                                ,,,6,,2
Puerto Rico,6,,                                ,,,6,,2
Seychelles,6,,                                ,,,6,,61
Guyana,4,,1,,,3,,5
Aruba,4,,                                ,,,4,,37
Equatorial Guinea,4,,                                ,,,4,,3
Curaçao,3,,1,1,,2,,18
Gabon,3,,                                ,,,3,,1
Kyrgyzstan,3,,                                ,,,3,,0.5
Mauritius,3,,                                ,,,3,,2
Mayotte,3,,                                ,,,3,,11
St. Barth,3,,                                ,,,3,,304
Saint Martin,3,,                                ,,,3,,78
Tanzania,3,,                                ,,,3,,0.05
Sudan,2,,1,,,1,,0.05
Barbados,2,,                                ,,,2,,7
Benin,2,,                                ,,,2,,0.2
Bermuda,2,,                                ,,,2,,32
Greenland,2,,                                ,,,2,,35
Liberia,2,,                                ,,,2,,0.4
Mauritania,2,,                                ,,,2,,0.4
Namibia,2,,                                ,,,2,,0.8
New Caledonia,2,,                                ,,,2,,7
Saint Lucia,2,,                                ,,,2,,11
U.S. Virgin Islands,2,,                                ,,,2,,19
Zambia,2,,                                ,,,2,,0.1
Cayman Islands,1,,1,,,0,,15
Nepal,1,,                                ,,1,0,,0.03
Antigua and Barbuda,1,,                                ,,,1,,10
Bahamas,1,,                                ,,,1,,3
Bhutan,1,,                                ,,,1,,1
CAR,1,,                                ,,,1,,0.2
Congo,1,,                                ,,,1,,0.2
Djibouti,1,,                                ,,,1,,1
El Salvador,1,1,                                ,,,1,,0.2
Fiji,1,1,                                ,,,1,,1
Gambia,1,,                                ,,,1,,0.4
Guinea,1,,                                ,,,1,,0.08
Vatican City,1,,                                ,,,1,,1248
Montserrat,1,,                                ,,,1,,200
Nicaragua,1,1,                                ,,,1,,0.2
St. Vincent Grenadines,1,,                                ,,,1,,9
Sint Maarten,1,,                                ,,,1,,23
Somalia,1,,                                ,,,1,,0.06
Suriname,1,,                                ,,,1,,2
Eswatini,1,,                                ,,,1,,0.9
Togo,1,,                                ,,,1,,0.1
Total:,220313,1525,8983,40,85769,125561,6825,28.3
CountryOther,TotalCases,NewCases,TotalDeaths,NewDeaths,TotalRecovered,ActiveCases,SeriousCritical,Tot Cases/1M pop
China,80894,13,3237                                ,11,69601,8056,2622,56
Italy,35713,+4207,2978                                ,475,4025,28710,2257,591
Iran,17361,+1192,1135                                ,147,5710,10516,,207
Spain,14769,+2943,638,105,1081,13050,800,316
Germany,12327,+2960,28,2,105,12194,2,147
USA,9259,+2848,150,41,106,9003,64,28
France,9134,+1404,264,89,602,8268,931,140
S. Korea,8413,93,84,3,1540,6789,59,164
Switzerland,3115,373,33,6,15,3067,,360
UK,2626,676,104,33,65,2457,20,39
Netherlands,2051,346,58,15,2,1991,45,120
Austria,1646,314,4,,9,1633,12,183
Norway,1591,120,6,3,1,1584,27,293
Belgium,1486,243,14,4,31,1441,33,128
Sweden,1301,105,10,2,15,1276,12,129
Denmark,1057,80,4,,1,1052,24,182
Japan,914,36,29,,191,694,41,7
Malaysia,790,117,2,,60,728,15,24
Canada,727,129,9,1,12,706,1,19
Diamond Princess,712,,7,,458,247,14,
Portugal,642,194,2,1,4,636,18,63
Australia,596,141,6,1,43,547,1,23
Brazil,529,183,4,3,2,523,18,2
Czechia,522,88,                                ,,3,519,5,49
Qatar,452,10,                                ,,4,448,,157
Israel,433,96,                                ,,11,422,6,50
Greece,418,31,5,,14,399,13,40
Ireland,366,74,2,,5,359,6,74
Finland,359,37,                                ,,10,349,2,65
Singapore,313,47,                                ,,117,196,14,54
Pakistan,307,60,2,2,13,292,,1
Poland,287,49,5,,13,269,3,8
Slovenia,286,11,1,,,285,6,138
Romania,260,43,                                ,,19,241,5,14
Estonia,258,33,                                ,,1,257,1,194
Bahrain,256,15,1,,95,160,3,150
Iceland,250,3,                                ,,5,245,1,733
Saudi Arabia,238,67,                                ,,6,232,,7
Chile,238,37,                                ,,,238,3,12
Indonesia,227,55,19,12,11,197,,0.8
Thailand,212,35,1,,42,169,1,3
Egypt,210,14,6,,28,176,,2
Luxembourg,203,63,2,1,,201,1,324
Philippines,202,15,17,3,7,178,1,2
Hong Kong,193,25,4,,95,94,4,26
Turkey,191,93,2,1,,189,,2
India,169,26,3,,14,152,,0.1
Ecuador,168,57,3,1,1,164,2,10
Iraq,164,10,12,1,41,111,,4
Russia,147,33,                                ,,8,139,,1
Peru,145,28,                                ,,1,144,8,4
Kuwait,142,12,                                ,,15,127,4,33
San Marino,140,21,14,3,4,122,11,4126
Lebanon,133,9,4,,4,125,3,19
South Africa,116,31,                                ,,,116,,2
UAE,113,,                                ,,26,87,2,11
Armenia,110,32,                                ,,1,109,2,37
Panama,109,40,1,,,108,7,25
Slovakia,105,8,                                ,,,105,2,19
Taiwan,100,23,1,,22,77,,4
Argentina,97,18,2,,3,92,1,2
Mexico,93,11,                                ,,4,89,1,0.7
Colombia,93,28,                                ,,1,92,,2
Bulgaria,92,11,2,,,90,,13
Croatia,89,20,                                ,,5,84,,22
Serbia,89,17,                                ,,1,88,4,10
Uruguay,79,29,                                ,,,79,,23
Vietnam,76,10,                                ,,16,60,,0.8
Algeria,75,14,7,2,32,36,,2
Latvia,71,11,                                ,,1,70,,38
Costa Rica,69,19,1,1,,68,2,14
Brunei,68,12,                                ,,,68,2,155
Albania,59,4,2,1,,57,2,21
Hungary,58,8,1,,2,55,4,6
Cyprus,58,9,                                ,,,58,1,48
Faeroe Islands,58,11,                                ,,1,57,,1187
Jordan,56,8,                                ,,1,55,,5
Morocco,54,10,2,,1,51,1,1
Andorra,53,14,                                ,,1,52,,686
Belarus,51,15,                                ,,5,46,,5
Sri Lanka,51,7,                                ,,3,48,,2
Malta,48,10,                                ,,2,46,,109
Palestine,44,,                                ,,,44,,9
North Macedonia,43,12,                                ,,1,42,1,21
Oman,39,6,                                ,,13,26,,8
Bosnia and Herzegovina,39,5,                                ,,2,37,,12
Georgia,38,4,                                ,,1,37,1,10
Cambodia,37,4,                                ,,1,36,,2
Moldova,36,6,1,1,1,34,2,9
Senegal,36,9,                                ,,2,34,,2
Kazakhstan,36,3,                                ,,,36,,2
Venezuela,36,3,                                ,,,36,,1
Dominican Republic,34,13,2,1,,32,,3
Azerbaijan,34,,1,,7,26,,3
Lithuania,34,8,                                ,,1,33,1,12
Guadeloupe,33,15,                                ,,,33,,82
Tunisia,29,2,                                ,,1,28,2,2
Liechtenstein,28,9,                                ,,,28,,734
Burkina Faso,27,12,1,1,,26,,1
Martinique,23,8,1,,,22,,61
Afghanistan,22,,                                ,,1,21,,0.6
New Zealand,20,,                                ,,,20,,4
Uzbekistan,18,7,                                ,,,18,,0.5
Macao,17,4,                                ,,10,7,,26
Ukraine,16,2,2,,,14,,0.4
Jamaica,15,2,1,1,2,12,,5
French Guiana,15,,                                ,,,15,,50
Bangladesh,14,4,1,1,3,10,,0.09
Réunion,14,5,                                ,,,14,,16
Cameroon,13,3,                                ,,,13,,0.5
Maldives,13,,                                ,,,13,,24
Bolivia,12,,                                ,,,12,,1
Paraguay,11,2,                                ,,,11,1,2
Rwanda,11,4,                                ,,,11,,0.8
Cuba,10,3,1,1,,9,,0.9
Monaco,9,,                                ,,,9,,229
Ivory Coast,9,5,                                ,,1,8,,0.3
Honduras,9,1,                                ,,,9,,0.9
Guatemala,8,,1,,,7,,0.4
Nigeria,8,5,                                ,,1,7,,0.04
Gibraltar,8,5,                                ,,2,6,,237
Guam,8,3,                                ,,,8,,47
Montenegro,8,6,                                ,,,8,,13
Channel Islands,7,1,                                ,,,7,,40
DRC,7,4,                                ,,,7,,0.08
Ghana,7,,                                ,,,7,,0.2
Kenya,7,3,                                ,,,7,,0.1
Trinidad and Tobago,7,2,                                ,,,7,,5
Ethiopia,6,,                                ,,,6,,0.05
Mongolia,6,1,                                ,,,6,,2
Puerto Rico,6,1,                                ,,,6,,2
Seychelles,6,2,                                ,,,6,,61
French Polynesia,5,2,                                ,,,5,,18
Guyana,4,,1,,,3,,5
Aruba,4,1,                                ,,,4,,37
Equatorial Guinea,4,3,                                ,,,4,,3
Curaçao,3,,                                ,,,3,,18
Gabon,3,,                                ,,,3,,1
Kyrgyzstan,3,3,                                ,,,3,,0.5
Mauritius,3,3,                                ,,,3,,2
Mayotte,3,,                                ,,,3,,11
St. Barth,3,,                                ,,,3,,304
Saint Martin,3,1,                                ,,,3,,78
Tanzania,3,2,                                ,,,3,,0.05
Sudan,2,1,1,,,1,,0.05
Barbados,2,,                                ,,,2,,7
Benin,2,1,                                ,,,2,,0.2
Bermuda,2,2,                                ,,,2,,32
Greenland,2,1,                                ,,,2,,35
Liberia,2,,                                ,,,2,,0.4
Mauritania,2,1,                                ,,,2,,0.4
Namibia,2,,                                ,,,2,,0.8
New Caledonia,2,2,                                ,,,2,,7
Saint Lucia,2,,                                ,,,2,,11
U.S. Virgin Islands,2,,                                ,,,2,,19
Zambia,2,2,                                ,,,2,,0.1
Cayman Islands,1,,1,,,0,,15
Nepal,1,,                                ,,1,0,,0.03
Antigua and Barbuda,1,,                                ,,,1,,10
Bahamas,1,,                                ,,,1,,3
Bhutan,1,,                                ,,,1,,1
CAR,1,,                                ,,,1,,0.2
Congo,1,,                                ,,,1,,0.2
Djibouti,1,1,                                ,,,1,,1
Gambia,1,,                                ,,,1,,0.4
Guinea,1,,                                ,,,1,,0.08
Vatican City,1,,                                ,,,1,,1248
Montserrat,1,1,                                ,,,1,,200
St. Vincent Grenadines,1,,                                ,,,1,,9
Sint Maarten,1,1,                                ,,,1,,23
Somalia,1,,                                ,,,1,,0.06
Suriname,1,,                                ,,,1,,2
Eswatini,1,,                                ,,,1,,0.9
Togo,1,,                                ,,,1,,0.1
Total:,218788,20566,8943,976,84445,125400,7158,28.1
