"Country,Other",TotalCases,NewCases,TotalDeaths,NewDeaths,TotalRecovered,ActiveCases,"Serious,Critical",Tot Cases/1M pop
China,80928,,3245                                ,,70420,7263,2274,56
Italy,41035,+5322,3405                                ,427,4440,33190,2498,679
Iran,18407,+1046,1284                                ,149,5979,11144,,219
Spain,18077,+3308,831,193,1107,16139,939,387
Germany,15320,+2993,44,16,115,15161,2,183
USA,13783,+4524,207,57,108,13468,64,42
France,10995,+1861,372,108,1295,9328,1122,168
S. Korea,8565,152,91,7,1947,6527,59,167
Switzerland,4222,+1107,43,10,15,4164,,488
UK,3269,643,144,40,65,3060,20,48
Netherlands,2460,409,76,18,2,2382,45,144
Austria,2179,533,6,2,9,2164,13,242
Belgium,1795,309,21,7,165,1609,130,155
Norway,1790,199,7,1,1,1782,27,330
Sweden,1439,138,11,1,16,1412,21,142
Denmark,1151,94,6,2,1,1144,30,199
Japan,943,29,33,4,191,719,46,7
Malaysia,900,110,2,,75,823,15,28
Canada,873,146,12,3,11,850,1,23
Portugal,786,144,4,2,4,778,20,77
Diamond Princess,712,,7,,527,178,14,
Australia,709,113,6,,46,657,1,28
Czechia,694,172,                                ,,3,691,6,65
Israel,677,244,                                ,,14,663,6,78
Brazil,635,106,7,3,2,626,18,3
Ireland,557,191,3,1,5,549,6,113
Greece,464,46,6,1,19,439,16,45
Qatar,460,8,                                ,,10,450,6,160
Pakistan,454,147,2,,13,439,,2
Finland,400,41,                                ,,10,390,2,72
Turkey,359,168,4,2,,355,,4
Poland,355,68,5,,13,337,3,9
Singapore,345,32,                                ,,124,221,14,59
Chile,342,104,                                ,,,342,6,18
Luxembourg,335,132,4,2,6,325,1,535
Iceland,330,80,                                ,,5,325,1,967
Slovenia,319,33,1,,,318,6,153
Indonesia,308,81,25,6,15,268,,1
Bahrain,278,22,1,,110,167,4,163
Romania,277,17,                                ,,25,252,5,14
Saudi Arabia,274,36,                                ,,8,266,,8
Thailand,272,60,1,,42,229,1,4
Estonia,267,9,                                ,,1,266,1,201
Ecuador,260,92,3,,1,256,2,15
Egypt,256,46,7,1,42,207,,3
Peru,234,89,1,1,1,232,7,7
Philippines,217,15,17,,8,192,1,2
Hong Kong,208,15,4,,98,106,4,28
Russia,199,52,1,1,8,190,,1
India,194,25,4,1,20,170,,0.1
Iraq,192,28,13,1,49,130,,5
Lebanon,157,24,4,,4,149,3,23
South Africa,150,34,                                ,,,150,,3
Kuwait,148,6,                                ,,18,130,5,35
San Marino,144,4,14,,4,126,12,4244
UAE,140,27,                                ,,31,109,2,14
Slovakia,124,19,                                ,,,124,2,23
Armenia,122,12,                                ,,1,121,2,41
Mexico,118,25,1,1,4,113,1,0.9
Argentina,111,14,3,1,3,105,,2
Croatia,110,21,1,1,5,104,,27
Panama,109,,1,,,108,7,25
Taiwan,108,8,1,,26,81,,5
Colombia,108,15,                                ,,1,107,,2
Bulgaria,107,15,3,1,,104,,15
Serbia,103,14,                                ,,1,102,4,12
Algeria,90,15,9,2,32,49,,2
Costa Rica,87,18,1,,,86,2,17
Latvia,86,15,                                ,,1,85,,46
Vietnam,85,9,                                ,,16,69,,0.9
Uruguay,79,,                                ,,,79,,23
Andorra,74,21,                                ,,1,73,,958
Hungary,73,15,1,,2,70,4,8
Brunei,73,5,                                ,,,73,2,167
Faeroe Islands,72,14,                                ,,1,71,,1474
Jordan,69,13,                                ,,1,68,,7
Cyprus,67,9,                                ,,,67,1,55
Albania,64,5,2,,,62,2,22
Bosnia and Herzegovina,64,25,                                ,,2,62,,20
Morocco,63,9,2,,2,59,1,2
Sri Lanka,60,9,                                ,,3,57,,3
Malta,53,5,                                ,,2,51,,120
Belarus,51,,                                ,,5,46,,5
North Macedonia,50,7,                                ,,1,49,1,24
Moldova,49,13,1,,1,47,3,12
Lithuania,48,14,                                ,,1,47,1,18
Oman,48,9,                                ,,13,35,,9
Palestine,47,3,                                ,,,47,,9
Kazakhstan,44,8,3,3,,41,,2
Azerbaijan,44,10,1,,7,36,,4
Venezuela,42,6,                                ,,,42,,1
Georgia,40,2,                                ,,1,39,1,10
Tunisia,39,10,1,1,1,37,2,3
Cambodia,37,,                                ,,1,36,,2
Senegal,36,,                                ,,2,34,,2
Dominican Republic,34,,2,,,32,,3
Burkina Faso,33,6,1,,,32,,2
Guadeloupe,33,,                                ,,,33,,82
New Zealand,28,8,                                ,,,28,,6
Liechtenstein,28,,                                ,,,28,,734
Réunion,28,14,                                ,,,28,,31
Ukraine,26,10,3,1,,23,,0.6
Martinique,23,,1,,,22,,61
Uzbekistan,23,5,                                ,,,23,,0.7
Afghanistan,22,,                                ,,1,21,,0.6
Bangladesh,18,4,1,,3,14,,0.1
Macao,17,,                                ,,10,7,,26
Jamaica,15,,1,,2,12,,5
Bolivia,15,3,                                ,,,15,,1
French Guiana,15,,                                ,,,15,,50
DRC,14,7,                                ,,,14,,0.2
Cameroon,13,,                                ,,,13,,0.5
Maldives,13,,                                ,,,13,,24
Montenegro,13,5,                                ,,,13,,21
Nigeria,12,4,                                ,,1,11,,0.06
Guam,12,4,                                ,,,12,,71
Honduras,12,3,                                ,,,12,,1
Cuba,11,1,1,,,10,,1.0
Channel Islands,11,4,                                ,,,11,,63
Ghana,11,4,                                ,,,11,,0.4
Paraguay,11,,                                ,,,11,1,2
Rwanda,11,,                                ,,,11,,0.8
Monaco,10,1,                                ,,,10,,255
Gibraltar,10,2,                                ,,2,8,,297
Guatemala,9,1,1,,,8,,0.5
Ivory Coast,9,,                                ,,1,8,,0.3
Trinidad and Tobago,9,2,                                ,,,9,,6
Ethiopia,7,1,                                ,,,7,,0.06
Kenya,7,,                                ,,,7,,0.1
Mauritius,7,4,                                ,,,7,,6
Equatorial Guinea,6,2,                                ,,,6,,4
French Polynesia,6,1,                                ,,,6,,21
Mongolia,6,,                                ,,,6,,2
Puerto Rico,6,,                                ,,,6,,2
Seychelles,6,,                                ,,,6,,61
Tanzania,6,3,                                ,,,6,,0.1
Guyana,5,1,1,,,4,,6
Aruba,5,1,                                ,,1,4,,47
Barbados,5,3,                                ,,,5,,17
Mayotte,4,1,                                ,,,4,,15
Cayman Islands,3,2,1,,,2,,46
Curaçao,3,,1,1,,2,,18
Bahamas,3,2,                                ,,,3,,8
Congo,3,2,                                ,,,3,,0.5
Gabon,3,,                                ,,,3,,1
Kyrgyzstan,3,,                                ,,,3,,0.5
Namibia,3,1,                                ,,,3,,1
St. Barth,3,,                                ,,,3,,304
Saint Martin,3,,                                ,,,3,,78
U.S. Virgin Islands,3,1,                                ,,,3,,29
Sudan,2,,1,,,1,,0.05
Benin,2,,                                ,,,2,,0.2
Bermuda,2,,                                ,,,2,,32
Greenland,2,,                                ,,,2,,35
Liberia,2,,                                ,,,2,,0.4
Mauritania,2,,                                ,,,2,,0.4
New Caledonia,2,,                                ,,,2,,7
Saint Lucia,2,,                                ,,,2,,11
Zambia,2,,                                ,,,2,,0.1
Nepal,1,,                                ,,1,0,,0.03
Antigua and Barbuda,1,,                                ,,,1,,10
Bhutan,1,,                                ,,,1,,1
CAR,1,,                                ,,,1,,0.2
Chad,1,1,                                ,,,1,,0.06
Djibouti,1,,                                ,,,1,,1
El Salvador,1,1,                                ,,,1,,0.2
Fiji,1,1,                                ,,,1,,1
Gambia,1,,                                ,,,1,,0.4
Guinea,1,,                                ,,,1,,0.08
Vatican City,1,,                                ,,,1,,1248
Montserrat,1,,                                ,,,1,,200
Nicaragua,1,1,                                ,,,1,,0.2
Niger,1,1,                                ,,,1,,0.04
St. Vincent Grenadines,1,,                                ,,,1,,9
Sint Maarten,1,,                                ,,,1,,23
Somalia,1,,                                ,,,1,,0.06
Suriname,1,,                                ,,,1,,2
Eswatini,1,,                                ,,,1,,0.9
Togo,1,,                                ,,,1,,0.1
Total:,244786,25964,10030,1079,87407,147349,7516,31.4
CountryOther,TotalCases,NewCases,TotalDeaths,NewDeaths,TotalRecovered,ActiveCases,SeriousCritical,Tot Cases/1M pop
China,80928,34,3245                                ,8,70420,7263,2274,56
Italy,35713,+4207,2978                                ,475,4025,28710,2257,591
Iran,17361,+1192,1135                                ,147,5710,10516,,207
Spain,14769,+2943,638,105,1081,13050,800,316
Germany,12327,+2960,28,2,105,12194,2,147
USA,9259,+2848,150,41,106,9003,64,28
France,9134,+1404,264,89,602,8268,931,140
S. Korea,8413,93,84,3,1540,6789,59,164
Switzerland,3115,373,33,6,15,3067,,360
UK,2626,676,104,33,65,2457,20,39
Netherlands,2051,346,58,15,2,1991,45,120
Austria,1646,314,4,,9,1633,12,183
Norway,1591,120,6,3,1,1584,27,293
Belgium,1486,243,14,4,31,1441,33,128
Sweden,1301,105,10,2,15,1276,12,129
Denmark,1057,80,4,,1,1052,24,182
Japan,914,36,29,,191,694,41,7
Malaysia,790,117,2,,60,728,15,24
Canada,727,129,9,1,12,706,1,19
Diamond Princess,712,,7,,458,247,14,
Portugal,642,194,2,1,4,636,18,63
Australia,596,141,6,1,43,547,1,23
Brazil,529,183,4,3,2,523,18,2
Czechia,522,88,                                ,,3,519,5,49
Qatar,452,10,                                ,,4,448,,157
Israel,433,96,                                ,,11,422,6,50
Greece,418,31,5,,14,399,13,40
Ireland,366,74,2,,5,359,6,74
Finland,359,37,                                ,,10,349,2,65
Singapore,313,47,                                ,,117,196,14,54
Pakistan,307,60,2,2,13,292,,1
Poland,287,49,5,,13,269,3,8
Slovenia,286,11,1,,,285,6,138
Romania,260,43,                                ,,19,241,5,14
Estonia,258,33,                                ,,1,257,1,194
Bahrain,256,15,1,,95,160,3,150
Iceland,250,3,                                ,,5,245,1,733
Saudi Arabia,238,67,                                ,,6,232,,7
Chile,238,37,                                ,,,238,3,12
Indonesia,227,55,19,12,11,197,,0.8
Thailand,212,35,1,,42,169,1,3
Egypt,210,14,6,,28,176,,2
Luxembourg,203,63,2,1,,201,1,324
Philippines,202,15,17,3,7,178,1,2
Hong Kong,193,25,4,,95,94,4,26
Turkey,191,93,2,1,,189,,2
India,169,26,3,,14,152,,0.1
Ecuador,168,57,3,1,1,164,2,10
Iraq,164,10,12,1,41,111,,4
Russia,147,33,                                ,,8,139,,1
Peru,145,28,                                ,,1,144,8,4
Kuwait,142,12,                                ,,15,127,4,33
San Marino,140,21,14,3,4,122,11,4126
Lebanon,133,9,4,,4,125,3,19
South Africa,116,31,                                ,,,116,,2
UAE,113,,                                ,,26,87,2,11
Armenia,110,32,                                ,,1,109,2,37
Panama,109,40,1,,,108,7,25
Slovakia,105,8,                                ,,,105,2,19
Taiwan,100,23,1,,22,77,,4
Argentina,97,18,2,,3,92,1,2
Mexico,93,11,                                ,,4,89,1,0.7
Colombia,93,28,                                ,,1,92,,2
Bulgaria,92,11,2,,,90,,13
Croatia,89,20,                                ,,5,84,,22
Serbia,89,17,                                ,,1,88,4,10
Uruguay,79,29,                                ,,,79,,23
Vietnam,76,10,                                ,,16,60,,0.8
Algeria,75,14,7,2,32,36,,2
Latvia,71,11,                                ,,1,70,,38
Costa Rica,69,19,1,1,,68,2,14
Brunei,68,12,                                ,,,68,2,155
Albania,59,4,2,1,,57,2,21
Hungary,58,8,1,,2,55,4,6
Cyprus,58,9,                                ,,,58,1,48
Faeroe Islands,58,11,                                ,,1,57,,1187
Jordan,56,8,                                ,,1,55,,5
Morocco,54,10,2,,1,51,1,1
Andorra,53,14,                                ,,1,52,,686
Belarus,51,15,                                ,,5,46,,5
Sri Lanka,51,7,                                ,,3,48,,2
Malta,48,10,                                ,,2,46,,109
Palestine,44,,                                ,,,44,,9
North Macedonia,43,12,                                ,,1,42,1,21
Oman,39,6,                                ,,13,26,,8
Bosnia and Herzegovina,39,5,                                ,,2,37,,12
Georgia,38,4,                                ,,1,37,1,10
Cambodia,37,4,                                ,,1,36,,2
Moldova,36,6,1,1,1,34,2,9
Senegal,36,9,                                ,,2,34,,2
Kazakhstan,36,3,                                ,,,36,,2
Venezuela,36,3,                                ,,,36,,1
Dominican Republic,34,13,2,1,,32,,3
Azerbaijan,34,,1,,7,26,,3
Lithuania,34,8,                                ,,1,33,1,12
Guadeloupe,33,15,                                ,,,33,,82
Tunisia,29,2,                                ,,1,28,2,2
Liechtenstein,28,9,                                ,,,28,,734
Burkina Faso,27,12,1,1,,26,,1
Martinique,23,8,1,,,22,,61
Afghanistan,22,,                                ,,1,21,,0.6
New Zealand,20,,                                ,,,20,,4
Uzbekistan,18,7,                                ,,,18,,0.5
Macao,17,4,                                ,,10,7,,26
Ukraine,16,2,2,,,14,,0.4
Jamaica,15,2,1,1,2,12,,5
French Guiana,15,,                                ,,,15,,50
Bangladesh,14,4,1,1,3,10,,0.09
Réunion,14,5,                                ,,,14,,16
Cameroon,13,3,                                ,,,13,,0.5
Maldives,13,,                                ,,,13,,24
Bolivia,12,,                                ,,,12,,1
Paraguay,11,2,                                ,,,11,1,2
Rwanda,11,4,                                ,,,11,,0.8
Cuba,10,3,1,1,,9,,0.9
Monaco,9,,                                ,,,9,,229
Ivory Coast,9,5,                                ,,1,8,,0.3
Honduras,9,1,                                ,,,9,,0.9
Guatemala,8,,1,,,7,,0.4
Nigeria,8,5,                                ,,1,7,,0.04
Gibraltar,8,5,                                ,,2,6,,237
Guam,8,3,                                ,,,8,,47
Montenegro,8,6,                                ,,,8,,13
Channel Islands,7,1,                                ,,,7,,40
DRC,7,4,                                ,,,7,,0.08
Ghana,7,,                                ,,,7,,0.2
Kenya,7,3,                                ,,,7,,0.1
Trinidad and Tobago,7,2,                                ,,,7,,5
Ethiopia,6,,                                ,,,6,,0.05
Mongolia,6,1,                                ,,,6,,2
Puerto Rico,6,1,                                ,,,6,,2
Seychelles,6,2,                                ,,,6,,61
French Polynesia,5,2,                                ,,,5,,18
Guyana,4,,1,,,3,,5
Aruba,4,1,                                ,,,4,,37
Equatorial Guinea,4,3,                                ,,,4,,3
Curaçao,3,,                                ,,,3,,18
Gabon,3,,                                ,,,3,,1
Kyrgyzstan,3,3,                                ,,,3,,0.5
Mauritius,3,3,                                ,,,3,,2
Mayotte,3,,                                ,,,3,,11
St. Barth,3,,                                ,,,3,,304
Saint Martin,3,1,                                ,,,3,,78
Tanzania,3,2,                                ,,,3,,0.05
Sudan,2,1,1,,,1,,0.05
Barbados,2,,                                ,,,2,,7
Benin,2,1,                                ,,,2,,0.2
Bermuda,2,2,                                ,,,2,,32
Greenland,2,1,                                ,,,2,,35
Liberia,2,,                                ,,,2,,0.4
Mauritania,2,1,                                ,,,2,,0.4
Namibia,2,,                                ,,,2,,0.8
New Caledonia,2,2,                                ,,,2,,7
Saint Lucia,2,,                                ,,,2,,11
U.S. Virgin Islands,2,,                                ,,,2,,19
Zambia,2,2,                                ,,,2,,0.1
Cayman Islands,1,,1,,,0,,15
Nepal,1,,                                ,,1,0,,0.03
Antigua and Barbuda,1,,                                ,,,1,,10
Bahamas,1,,                                ,,,1,,3
Bhutan,1,,                                ,,,1,,1
CAR,1,,                                ,,,1,,0.2
Congo,1,,                                ,,,1,,0.2
Djibouti,1,1,                                ,,,1,,1
Gambia,1,,                                ,,,1,,0.4
Guinea,1,,                                ,,,1,,0.08
Vatican City,1,,                                ,,,1,,1248
Montserrat,1,1,                                ,,,1,,200
St. Vincent Grenadines,1,,                                ,,,1,,9
Sint Maarten,1,1,                                ,,,1,,23
Somalia,1,,                                ,,,1,,0.06
Suriname,1,,                                ,,,1,,2
Eswatini,1,,                                ,,,1,,0.9
Togo,1,,                                ,,,1,,0.1
Total:,218822,20587,8951,973,85264,124607,6810,28.1
