"Country,Other",TotalCases,NewCases,TotalDeaths,NewDeaths,TotalRecovered,ActiveCases,"Serious,Critical",Tot Cases/1M pop
China,81054,46,3261                                ,6,72440,5353,1845,56
Italy,53578,,4825                                ,,6072,42681,2857,886
Spain,28572,+3076,1753                                ,372,2125,24694,1785,611
USA,26909,+2702,349,47,178,26382,708,81
Germany,23937,+1573,93,9,266,23578,2,286
Iran,21638,+1028,1685                                ,129,7635,12318,,258
France,14459,,562,,1587,12310,1525,222
S. Korea,8897,98,104,2,2909,5884,59,174
Switzerland,7225,362,80,,131,7014,141,835
UK,5018,,240,7,93,4685,20,74
Netherlands,4204,573,179,43,2,4023,354,245
Belgium,3401,586,75,8,263,3063,288,293
Austria,3214,222,9,1,9,3196,15,357
Norway,2249,85,7,,6,2236,28,415
Sweden,1906,136,21,1,16,1869,68,189
Portugal,1600,320,14,2,5,1581,26,157
Denmark,1395,69,13,,1,1381,42,241
Australia,1353,281,7,,46,1300,2,53
Canada,1331,3,20,1,14,1297,1,35
Malaysia,1306,123,10,2,139,1157,26,40
Brazil,1201,23,18,,2,1181,18,6
Japan,1054,,36,,235,783,57,8
Czechia,1047,52,                                ,,6,1041,7,98
Turkey,947,,21,,,926,,11
Israel,945,62,1,,37,907,20,109
Luxembourg,798,128,8,,6,784,3,1275
Ireland,785,,3,,5,777,13,159
Pakistan,730,85,3,,13,714,,3
Diamond Princess,712,,8,,567,137,15,
Chile,632,95,1,,8,623,7,33
Finland,626,103,1,,10,615,12,113
Thailand,599,188,1,,44,554,7,9
Iceland,568,95,1,,5,562,1,1665
Poland,563,27,7,2,13,543,3,15
Ecuador,532,,7,,3,522,2,30
Greece,530,,13,,19,498,18,51
Indonesia,514,64,48,10,29,437,,2
Saudi Arabia,511,119,                                ,,17,494,,15
Qatar,481,,                                ,,27,454,6,167
Singapore,455,23,2,,144,309,14,78
Romania,433,66,2,2,64,367,14,23
Slovenia,414,31,1,,,413,12,199
Philippines,380,73,25,6,15,340,1,3
Russia,367,61,1,,16,350,,3
India,360,28,7,2,24,329,,0.3
Bahrain,332,22,1,,149,182,4,195
Estonia,326,20,                                ,,4,322,2,246
Peru,318,,5,,1,312,5,10
Egypt,294,,10,,42,242,,3
Hong Kong,274,,4,,100,170,4,37
Mexico,251,48,2,,4,245,1,2
Lebanon,248,18,4,,8,236,4,36
Panama,245,,3,,1,241,7,57
South Africa,240,,                                ,,2,238,,4
Croatia,235,29,1,,5,229,5,57
Iraq,233,19,20,3,57,156,,6
Argentina,225,67,4,,27,194,,5
Colombia,210,14,1,1,3,206,,4
Armenia,190,30,                                ,,2,188,6,64
Serbia,188,17,2,1,2,184,4,22
Kuwait,188,12,                                ,,27,161,5,44
Slovakia,178,,                                ,,7,171,2,33
San Marino,175,15,20,,4,151,13,5158
Bulgaria,174,11,3,,3,168,3,25
Taiwan,169,16,2,,28,139,,7
UAE,153,,2,,38,113,2,15
Algeria,139,,15,,65,59,,3
Latvia,139,15,                                ,,1,138,,74
Uruguay,135,25,                                ,,,135,2,39
Hungary,131,28,6,2,16,109,6,14
Costa Rica,117,,2,,2,113,2,23
North Macedonia,115,30,                                ,,1,114,1,55
Andorra,113,25,1,1,1,111,2,1462
Dominican Republic,112,,3,,,109,,10
Morocco,109,13,3,,3,103,1,3
Vietnam,106,12,                                ,,17,89,2,1
Lithuania,105,6,1,,1,103,1,39
Jordan,100,,                                ,,1,99,,10
Bosnia and Herzegovina,94,1,1,,2,91,1,29
Faeroe Islands,92,,                                ,,3,89,,1883
Malta,90,17,                                ,,2,88,1,204
Albania,89,13,2,,2,85,2,31
Cyprus,84,,1,,3,80,3,70
Brunei,83,,                                ,,1,82,2,190
Sri Lanka,82,5,                                ,,3,79,2,4
Moldova,80,,1,,1,78,3,20
Belarus,76,,                                ,,15,61,,8
Burkina Faso,75,11,4,1,5,66,,4
Tunisia,75,15,3,2,1,71,7,6
Venezuela,70,,                                ,,15,55,2,2
New Zealand,66,14,                                ,,,66,,14
Azerbaijan,65,12,1,,11,53,,6
Palestine,59,6,                                ,,17,42,,12
Kazakhstan,57,3,                                ,,,57,,3
Guadeloupe,56,,1,,,55,4,140
Senegal,56,,                                ,,5,51,,3
Oman,55,3,                                ,,17,38,,11
Georgia,54,5,                                ,,1,53,1,14
Cambodia,53,,                                ,,2,51,,3
Trinidad and Tobago,50,1,                                ,,,50,,36
Ukraine,47,,3,,8,36,,1
Réunion,47,,                                ,,,47,,52
Uzbekistan,42,1,                                ,,,42,,1
Cameroon,40,,                                ,,2,38,,2
Martinique,37,,1,,,36,7,99
Liechtenstein,37,,                                ,,,37,,970
Afghanistan,34,10,                                ,,1,33,,0.9
Channel Islands,32,,                                ,,,32,,184
Bangladesh,27,3,2,,3,22,,0.2
Guam,27,12,1,1,,26,,160
Nigeria,26,4,                                ,,1,25,,0.1
Honduras,26,2,                                ,,,26,,3
DRC,23,,1,,,22,,0.3
Puerto Rico,23,2,1,,,22,,8
Paraguay,22,,1,,,21,1,3
Cuba,21,,1,,,20,,2
Ghana,21,,1,,,20,,0.7
Macao,20,1,                                ,,10,10,,31
Bolivia,20,1,                                ,,,20,,2
Jamaica,19,,1,,2,16,,6
Guyana,18,,1,,,17,,23
Mauritius,18,4,1,,,17,,14
Monaco,18,,                                ,,1,17,,459
French Guiana,18,,                                ,,,18,,60
Guatemala,17,,1,,,16,,0.9
Rwanda,17,,                                ,,,17,,1
Montenegro,16,,                                ,,,16,,25
Togo,16,,                                ,,,16,,2
French Polynesia,15,,                                ,,,15,,53
Barbados,14,,                                ,,,14,,49
Ivory Coast,14,,                                ,,1,13,,0.5
Kyrgyzstan,14,,                                ,,,14,,2
Maldives,13,,                                ,,3,10,,24
Tanzania,12,6,                                ,,,12,,0.2
Ethiopia,11,2,                                ,,,11,,0.10
Mayotte,11,,                                ,,,11,,40
Gibraltar,10,,                                ,,2,8,,297
Mongolia,10,,                                ,,,10,,3
Aruba,8,3,                                ,,1,7,,75
Kenya,7,,                                ,,,7,,0.1
Seychelles,7,,                                ,,,7,,71
Equatorial Guinea,6,,                                ,,,6,,4
U.S. Virgin Islands,6,,                                ,,,6,,57
Gabon,5,,1,,,4,,2
Isle of Man,5,3,                                ,,,5,,59
Saint Martin,5,,                                ,,,5,,129
Suriname,5,,                                ,,,5,,9
Bahamas,4,,                                ,,,4,,10
New Caledonia,4,,                                ,,,4,,14
Eswatini,4,3,                                ,,,4,,3
Cayman Islands,3,,1,,,2,,46
Curaçao,3,,1,,,2,,18
Cabo Verde,3,,                                ,,,3,,5
CAR,3,,                                ,,,3,,0.6
Congo,3,,                                ,,,3,,0.5
El Salvador,3,,                                ,,,3,,0.5
Liberia,3,,                                ,,,3,,0.6
Madagascar,3,,                                ,,,3,,0.1
Namibia,3,,                                ,,,3,,1
St. Barth,3,,                                ,,,3,,304
Zambia,3,1,                                ,,,3,,0.2
Zimbabwe,3,,                                ,,,3,,0.2
Sudan,2,,1,,,1,,0.05
Nepal,2,1,                                ,,1,1,,0.07
Angola,2,,                                ,,,2,,0.06
Benin,2,,                                ,,,2,,0.2
Bermuda,2,,                                ,,,2,,32
Bhutan,2,,                                ,,,2,,3
Fiji,2,,                                ,,,2,,2
Greenland,2,,                                ,,,2,,35
Guinea,2,,                                ,,,2,,0.2
Haiti,2,,                                ,,,2,,0.2
Mauritania,2,,                                ,,,2,,0.4
Nicaragua,2,,                                ,,,2,,0.3
Niger,2,1,                                ,,,2,,0.08
Saint Lucia,2,,                                ,,,2,,11
Antigua and Barbuda,1,,                                ,,,1,,10
Chad,1,,                                ,,,1,,0.06
Djibouti,1,,                                ,,,1,,1
Eritrea,1,,                                ,,,1,,0.3
Gambia,1,,                                ,,,1,,0.4
Vatican City,1,,                                ,,,1,,1248
Montserrat,1,,                                ,,,1,,200
Papua New Guinea,1,,                                ,,,1,,0.1
St. Vincent Grenadines,1,,                                ,,,1,,9
Sint Maarten,1,,                                ,,,1,,23
Somalia,1,,                                ,,,1,,0.06
Timor-Leste,1,,                                ,,,1,,0.8
Uganda,1,,                                ,,,1,,0.02
Total:,318254,13264,13671,664,96010,208573,10142,40.8
CountryOther,TotalCases,NewCases,TotalDeaths,NewDeaths,TotalRecovered,ActiveCases,SeriousCritical,Tot Cases/1M pop
China,81008,41,3255                                ,7,71740,6013,1927,56
Italy,53578,+6557,4825                                ,793,6072,42681,2857,886
Spain,25496,+3925,1381                                ,288,2125,21990,1612,545
USA,24207,+4824,302,46,176,23729,637,73
Germany,22364,+2516,84,16,209,22071,2,267
Iran,20610,966,1556                                ,123,7635,11419,,245
France,14459,+1847,562,112,1587,12310,1525,222
S. Korea,8799,147,102,8,2612,6085,59,172
Switzerland,6863,+1248,80,24,131,6652,141,793
UK,5018,+1035,233,56,93,4692,20,74
Netherlands,3631,637,136,30,2,3493,354,212
Austria,2992,343,8,2,9,2975,15,332
Belgium,2815,558,67,30,263,2485,288,243
Norway,2164,205,7,,6,2151,28,399
Sweden,1770,131,20,4,16,1734,71,175
Canada,1328,241,19,7,14,1295,1,35
Denmark,1326,71,13,4,1,1312,42,229
Portugal,1280,260,12,6,5,1263,26,126
Malaysia,1183,153,8,5,114,1061,26,37
Brazil,1178,208,18,7,2,1158,18,6
Australia,1072,144,7,,46,1019,2,42
Japan,1054,47,36,1,215,803,55,8
Czechia,995,162,                                ,,6,989,7,93
Turkey,947,277,21,12,,926,,11
Israel,883,178,1,,36,846,15,102
Ireland,785,102,3,,5,777,13,159
Diamond Princess,712,,8,,567,137,15,
Luxembourg,670,186,8,3,6,656,3,1070
Pakistan,645,144,3,,13,629,,3
Chile,537,103,1,1,8,528,7,28
Poland,536,111,5,,13,518,3,14
Ecuador,532,106,7,,3,522,2,30
Greece,530,35,13,3,19,498,18,51
Finland,523,73,1,1,10,512,2,94
Qatar,481,11,                                ,,27,454,6,167
Iceland,473,64,1,1,5,467,1,1386
Indonesia,450,81,38,6,20,392,,2
Singapore,432,47,2,2,140,290,14,74
Thailand,411,89,1,,44,366,7,6
Saudi Arabia,392,48,                                ,,16,376,,11
Slovenia,383,42,1,,,382,12,184
Romania,367,59,                                ,,52,315,14,19
India,332,83,5,,23,304,,0.2
Peru,318,55,5,1,1,312,5,10
Bahrain,310,12,1,,125,184,4,182
Philippines,307,77,19,1,13,275,1,3
Russia,306,53,1,,16,289,,2
Estonia,306,23,                                ,,2,304,,231
Egypt,294,9,10,2,42,242,,3
Hong Kong,274,18,4,,100,170,4,37
Panama,245,45,3,2,1,241,7,57
South Africa,240,38,                                ,,2,238,,4
Lebanon,230,53,4,,8,218,4,34
Iraq,214,6,17,,51,146,,5
Croatia,206,76,1,,5,200,,50
Mexico,203,39,2,1,4,197,1,2
Colombia,196,51,                                ,,1,195,,4
Slovakia,178,41,                                ,,7,171,2,33
Kuwait,176,17,                                ,,27,149,5,41
Serbia,171,36,1,,2,168,4,20
Bulgaria,163,36,3,,3,157,3,23
San Marino,160,9,20,6,4,136,12,4715
Armenia,160,24,                                ,,1,159,2,54
Argentina,158,,4,1,3,151,,3
Taiwan,153,18,2,,28,123,,6
UAE,153,13,2,,38,113,2,15
Algeria,139,45,15,4,65,59,,3
Latvia,124,13,                                ,,1,123,,66
Costa Rica,117,4,2,,2,113,2,23
Dominican Republic,112,40,3,1,,109,,10
Uruguay,110,,                                ,,,110,3,32
Hungary,103,18,4,,7,92,6,11
Jordan,100,16,                                ,,1,99,,10
Lithuania,99,30,1,,1,97,1,36
Morocco,96,10,3,,3,90,1,3
Vietnam,94,3,                                ,,17,77,2,1.0
Bosnia and Herzegovina,93,4,1,1,2,90,1,28
Faeroe Islands,92,12,                                ,,3,89,,1883
Andorra,88,13,                                ,,1,87,2,1139
North Macedonia,85,9,                                ,,1,84,1,41
Cyprus,84,9,1,1,3,80,3,70
Brunei,83,5,                                ,,1,82,2,190
Moldova,80,14,1,,1,78,3,20
Sri Lanka,77,4,                                ,,3,74,2,4
Albania,76,6,2,,2,72,2,26
Belarus,76,7,                                ,,15,61,,8
Malta,73,9,                                ,,2,71,1,165
Venezuela,70,5,                                ,,15,55,2,2
Burkina Faso,64,24,3,2,5,56,,3
Tunisia,60,6,1,,1,58,7,5
Guadeloupe,56,5,1,,,55,4,140
Senegal,56,9,                                ,,5,51,,3
Kazakhstan,54,2,                                ,,,54,,3
Azerbaijan,53,9,1,,11,41,,5
Cambodia,53,2,                                ,,2,51,,3
Palestine,53,5,                                ,,17,36,,10
New Zealand,52,,                                ,,,52,,11
Oman,52,4,                                ,,13,39,,10
Georgia,49,5,                                ,,1,48,1,12
Trinidad and Tobago,49,40,                                ,,,49,,35
Ukraine,47,6,3,,1,43,,1
Réunion,47,9,                                ,,,47,,52
Uzbekistan,41,8,                                ,,,41,,1
Cameroon,40,13,                                ,,2,38,,2
Martinique,37,5,1,,,36,7,99
Liechtenstein,37,9,                                ,,,37,,970
Channel Islands,32,20,                                ,,,32,,184
Bangladesh,24,4,2,1,3,19,,0.1
Afghanistan,24,,                                ,,1,23,,0.6
Honduras,24,,                                ,,,24,,2
DRC,23,5,1,1,,22,,0.3
Paraguay,22,4,1,1,,21,1,3
Nigeria,22,10,                                ,,1,21,,0.1
Cuba,21,,1,,,20,,2
Ghana,21,5,1,1,,20,,0.7
Puerto Rico,21,7,1,1,,20,,7
Jamaica,19,,1,,2,16,,6
Macao,19,2,                                ,,10,9,,29
Bolivia,19,3,                                ,,,19,,2
Guyana,18,3,1,,,17,,23
Monaco,18,7,                                ,,1,17,,459
French Guiana,18,3,                                ,,,18,,60
Guatemala,17,5,1,,,16,,0.9
Rwanda,17,,                                ,,,17,,1
Montenegro,16,2,                                ,,,16,,25
Togo,16,7,                                ,,,16,,2
French Polynesia,15,4,                                ,,,15,,53
Guam,15,1,                                ,,,15,,89
Mauritius,14,2,1,1,,13,,11
Barbados,14,8,                                ,,,14,,49
Ivory Coast,14,5,                                ,,1,13,,0.5
Kyrgyzstan,14,8,                                ,,,14,,2
Maldives,13,,                                ,,3,10,,24
Mayotte,11,4,                                ,,,11,,40
Gibraltar,10,,                                ,,2,8,,297
Mongolia,10,4,                                ,,,10,,3
Ethiopia,9,,                                ,,,9,,0.08
Kenya,7,,                                ,,,7,,0.1
Seychelles,7,,                                ,,,7,,71
Equatorial Guinea,6,,                                ,,,6,,4
Tanzania,6,,                                ,,,6,,0.1
U.S. Virgin Islands,6,3,                                ,,,6,,57
Gabon,5,1,1,,,4,,2
Aruba,5,,                                ,,1,4,,47
Saint Martin,5,1,                                ,,,5,,129
Suriname,5,1,                                ,,,5,,9
Bahamas,4,,                                ,,,4,,10
New Caledonia,4,2,                                ,,,4,,14
Cayman Islands,3,,1,,,2,,46
Curaçao,3,,1,,,2,,18
Cabo Verde,3,2,                                ,,,3,,5
CAR,3,,                                ,,,3,,0.6
Congo,3,,                                ,,,3,,0.5
El Salvador,3,2,                                ,,,3,,0.5
Liberia,3,1,                                ,,,3,,0.6
Madagascar,3,,                                ,,,3,,0.1
Namibia,3,,                                ,,,3,,1
St. Barth,3,,                                ,,,3,,304
Zimbabwe,3,2,                                ,,,3,,0.2
Sudan,2,,1,,,1,,0.05
Angola,2,1,                                ,,,2,,0.06
Benin,2,,                                ,,,2,,0.2
Bermuda,2,,                                ,,,2,,32
Bhutan,2,,                                ,,,2,,3
Fiji,2,1,                                ,,,2,,2
Greenland,2,,                                ,,,2,,35
Guinea,2,,                                ,,,2,,0.2
Haiti,2,,                                ,,,2,,0.2
Isle of Man,2,,                                ,,,2,,24
Mauritania,2,,                                ,,,2,,0.4
Nicaragua,2,,                                ,,,2,,0.3
Saint Lucia,2,,                                ,,,2,,11
Zambia,2,,                                ,,,2,,0.1
Nepal,1,,                                ,,1,0,,0.03
Antigua and Barbuda,1,,                                ,,,1,,10
Chad,1,,                                ,,,1,,0.06
Djibouti,1,,                                ,,,1,,1
Eritrea,1,1,                                ,,,1,,0.3
Gambia,1,,                                ,,,1,,0.4
Vatican City,1,,                                ,,,1,,1248
Montserrat,1,,                                ,,,1,,200
Niger,1,,                                ,,,1,,0.04
Papua New Guinea,1,,                                ,,,1,,0.1
St. Vincent Grenadines,1,,                                ,,,1,,9
Sint Maarten,1,,                                ,,,1,,23
Somalia,1,,                                ,,,1,,0.06
Eswatini,1,,                                ,,,1,,0.9
Timor-Leste,1,1,                                ,,,1,,0.8
Uganda,1,1,                                ,,,1,,0.02
Total:,304990,29434,13007,1627,94800,197183,9955,39.1
