"Country,Other",TotalCases,NewCases,TotalDeaths,NewDeaths,TotalRecovered,ActiveCases,"Serious,Critical",Tot Cases/1M pop
China,80894,13, 3237 ,11,69614 , 8043 ,2622 ,56
Italy,31506, , 2503 , ,2941 , 26062 ,2060 ,521
Iran,17361, +1192 , 1135 ,147,5389 , 10837 , ,207
Spain,13910, +2084 ,623,90,1081 , 12206 ,563,298
Germany,11302, +1935 ,27,1,86, 11189 ,2,135
S. Korea,8413,93,84,3,1540 , 6789 ,59,164
France,7730, ,175, ,602, 6953 ,699,118
USA,7526, +1115 ,117,8,106, 7303 ,12,23
Switzerland,3070,328,27, ,15, 3028 , ,355
UK,2626,676,71, ,65, 2490 ,20,39
Netherlands,2051,346,58,15,2, 1991 ,45,120
Austria,1646,314,4, ,9, 1633 ,12,183
Norway,1550,79,6,3,1, 1543 ,27,286
Belgium,1486,243,14,4,31, 1441 ,33,128
Sweden,1292,96,8, ,1, 1283 ,12,128
Denmark,1057,80,4, ,1, 1052 ,24,182
Japan,899,21,29, ,144,726,41,7
Malaysia,790,117,2, ,60,728,15,24
Diamond Princess,712, ,7, ,456,249,14,
Portugal,642,194,2,1,4,636,18,63
Canada,598, ,8, ,12,578,1,16
Australia,565,110,6,1,43,516,1,22
Czechia,464,30, , ,3,461,5,43
Qatar,442, , , ,4,438, ,153
Israel,433,96, , ,11,422,6,50
Greece,418,31,5, ,14,399,13,40
Brazil,367,21,1, ,2,364,18,2
Finland,359,37, , ,10,349,2,65
Singapore,313,47, , ,114,199,14,54
Ireland,292, ,2, ,5,285,6,59
Slovenia,286,11,1, , ,285,4,138
Pakistan,272,25, , ,2,270, ,1
Estonia,258,33, , ,1,257,1,194
Bahrain,255,14,1, ,88,166,3,150
Poland,251,13,5, ,1,245,3,7
Iceland,250,3, , ,5,245,1,733
Romania,246,29, , ,19,227,5,13
Chile,238,37, , , ,238,3,12
Indonesia,227,55,19,12,11,197, ,0.8
Thailand,212,35,1, ,41,170,1,3
Luxembourg,203,63,2,1, ,201,1,324
Philippines,202,15,17,3,4,181,1,2
Egypt,196, ,6, ,26,164, ,2
Hong Kong,181,13,4, ,92,85,4,24
Saudi Arabia,171, , , ,6,165, ,5
Iraq,164,10,12,1,41,111, ,4
India,155,12,3, ,14,138, ,0.1
Ecuador,155,44,2, , ,153,2,9
Russia,147,33, , ,8,139, ,1
Peru,145,28, , ,1,144,8,4
Kuwait,142,12, , ,15,127,4,33
Lebanon,133,9,4, ,4,125,3,19
San Marino,119, ,11, ,4,104,11,3507
South Africa,116,31, , , ,116, ,2
UAE,113, , , ,26,87,2,11
Slovakia,105,8, , , ,105,2,19
Armenia,102,24, , ,1,101,2,34
Taiwan,100,23,1, ,20,79, ,4
Turkey,98, ,1, , ,97, ,1
Mexico,93,11, , ,4,89,1,0.7
Colombia,93,28, , ,1,92, ,2
Bulgaria,92,11,2, , ,90, ,13
Panama,86,17,1, , ,85,7,20
Serbia,83,11, , ,1,82,4,9
Croatia,81,12, , ,5,76, ,20
Argentina,79, ,2, ,3,74,1,2
Vietnam,75,9, , ,16,59, ,0.8
Algeria,72,11,6,1,10,56, ,2
Latvia,71,11, , ,1,70, ,38
Brunei,68,12, , , ,68,2,155
Albania,59,4,2,1, ,57,2,21
Hungary,58,8,1, ,2,55,4,6
Faeroe Islands,58,11, , ,1,57, ,1187
Jordan,52,4, , ,1,51, ,5
Belarus,51,15, , ,5,46, ,5
Sri Lanka,51,7, , ,3,48, ,2
Costa Rica,50, , , , ,50,3,10
Uruguay,50, , , , ,50, ,14
Morocco,49,5,2, ,1,46,1,1
Cyprus,49, , , , ,49,1,41
Malta,48,10, , ,2,46, ,109
Palestine,44, , , , ,44, ,9
Andorra,39, , , ,1,38, ,505
Bosnia and Herzegovina,39,5, , ,2,37, ,12
Georgia,38,4, , ,1,37,1,10
Kazakhstan,36,3, , , ,36, ,2
Venezuela,36,3, , , ,36, ,1
Cambodia,35,2, , ,1,34, ,2
North Macedonia,35,4, , ,1,34,1,17
Azerbaijan,34, ,1, ,6,27, ,3
Lithuania,33,7, , ,1,32,1,12
Oman,33, , , ,12,21, ,6
Senegal,31,4, , ,2,29, ,2
Moldova,30, ,1,1,1,28,2,7
Tunisia,29,2, , ,1,28,2,2
Guadeloupe,27,9, , , ,27, ,67
Afghanistan,22, , , ,1,21, ,0.6
Dominican Republic,21, ,1, , ,20, ,2
Burkina Faso,20,5,1,1, ,19, ,1.0
New Zealand,20, , , , ,20, ,4
Martinique,19,4,1, , ,18, ,51
Liechtenstein,19, , , , ,19, ,498
Macao,15,2, , ,10,5, ,23
Uzbekistan,15,4, , , ,15, ,0.4
Ukraine,14, ,2, , ,12, ,0.3
Bangladesh,14,4,1,1,3,10, ,0.09
Jamaica,13, , , ,2,11, ,4
Maldives,13, , , , ,13, ,24
Bolivia,12, , , , ,12, ,1
Réunion,12,3, , , ,12, ,13
French Guiana,11, , , , ,11, ,37
Paraguay,11,2, , , ,11,1,2
Cameroon,10, , , , ,10, ,0.4
Monaco,9, , , , ,9, ,229
Honduras,9,1, , , ,9, ,0.9
Guatemala,8, ,1, , ,7, ,0.4
Nigeria,8,5, , ,1,7, ,0.04
Gibraltar,8,5, , ,2,6, ,237
Guam,8,3, , , ,8, ,47
Rwanda,8,1, , , ,8, ,0.6
Cuba,7, , , , ,7, ,0.6
DRC,7,4, , , ,7, ,0.08
Ghana,7, , , , ,7, ,0.2
Kenya,7,3, , , ,7, ,0.1
Trinidad and Tobago,7,2, , , ,7, ,5
Channel Islands,6, , , , ,6, ,35
Ivory Coast,6,2, , ,1,5, ,0.2
Ethiopia,6, , , , ,6, ,0.05
Mongolia,6,1, , , ,6, ,2
Seychelles,6,2, , , ,6, ,61
Puerto Rico,5, , , , ,5, ,2
Guyana,4, ,1, , ,3, ,5
Aruba,4,1, , , ,4, ,37
Equatorial Guinea,4,3, , , ,4, ,3
Curaçao,3, , , , ,3, ,18
French Polynesia,3, , , , ,3, ,11
Gabon,3, , , , ,3, ,1
Kyrgyzstan,3,3, , , ,3, ,0.5
Mayotte,3, , , , ,3, ,11
St. Barth,3, , , , ,3, ,304
Saint Martin,3,1, , , ,3, ,78
Tanzania,3,2, , , ,3, ,0.05
Sudan,2,1,1, , ,1, ,0.05
Barbados,2, , , , ,2, ,7
Benin,2,1, , , ,2, ,0.2
Greenland,2,1, , , ,2, ,35
Liberia,2, , , , ,2, ,0.4
Mauritania,2,1, , , ,2, ,0.4
Montenegro,2, , , , ,2, ,3
Namibia,2, , , , ,2, ,0.8
New Caledonia,2,2, , , ,2, ,7
Saint Lucia,2, , , , ,2, ,11
U.S. Virgin Islands,2, , , , ,2, ,19
Zambia,2,2, , , ,2, ,0.1
Cayman Islands,1, ,1, , ,0, ,15
Nepal,1, , , ,1,0, ,0.03
Antigua and Barbuda,1, , , , ,1, ,10
Bahamas,1, , , , ,1, ,3
Bhutan,1, , , , ,1, ,1
CAR,1, , , , ,1, ,0.2
Congo,1, , , , ,1, ,0.2
Djibouti,1,1, , , ,1, ,1
Gambia,1, , , , ,1, ,0.4
Guinea,1, , , , ,1, ,0.08
Vatican City,1, , , , ,1, ,1248
Montserrat,1,1, , , ,1, ,200
St. Vincent Grenadines,1, , , , ,1, ,9
Somalia,1, , , , ,1, ,0.06
Suriname,1, , , , ,1, ,2
Eswatini,1, , , , ,1, ,0.9
Togo,1, , , , ,1, ,0.1
Total:,208409,10191,8273,306,82902,117234,6439,26.7
