,"Country,Other",TotalCases,NewCases,TotalDeaths,NewDeaths,TotalRecovered,ActiveCases,"Serious,Critical",Tot Cases/1M pop
0,China,80815.0,22, 3177 ,8,64151 , 13487 ,4020 ,56.1
1,Italy,15113.0, , 1016 , ,1258 , 12839 ,1153 ,250.0
2,Iran,11364.0, +1289 ,514,85,3529 , 7321 , ,135.3
3,S. Korea,7979.0,110,71,5,510, 7398 ,93,155.6
4,Spain,3921.0,775,90,4,189, 3642 ,190,83.9
5,Germany,3116.0,371,6, ,46, 3064 ,9,37.2
6,France,2876.0, ,61, ,12, 2803 ,129,44.1
7,USA,1832.0,135,41, ,31, 1760 ,10,5.5
8,Switzerland,1135.0,267,7, ,4, 1124 , ,131.1
9,Norway,878.0,78,1, ,1,876, ,162.0
10,Denmark,785.0,111, , ,1,784,2,135.5
11,Sweden,727.0,40,1, ,1,725,2,72.0
12,Japan,701.0,10,19, ,118,564,29,5.5
13,Diamond Princess,696.0, ,7, ,325,364,32,
14,Netherlands,614.0, ,5, ,2,607,1,35.8
15,UK,590.0, ,10, ,18,562,20,8.7
16,Austria,428.0,67,1, ,6,421,1,47.5
17,Belgium,399.0, ,3, ,1,395,2,34.4
18,Qatar,262.0, , , , ,262, ,90.9
19,Bahrain,210.0,13, , ,44,166,1,123.4
20,Australia,199.0,43,3, ,26,170,1,7.8
21,Singapore,187.0, , , ,96,91,12,32.0
22,Canada,158.0,16,1, ,11,146,1,4.2
23,Malaysia,158.0, , , ,32,126,3,4.9
24,Finland,155.0,46, , ,1,154, ,28.0
25,Hong Kong,132.0,1,4,1,77,51,4,17.6
26,Israel,126.0,17, , ,4,122,2,14.6
27,Greece,117.0, ,1, ,2,114,2,11.2
28,Czechia,117.0,1, , , ,117,2,10.9
29,Iceland,117.0, , , , ,117, ,
30,Portugal,112.0,34, , ,1,111,1,11.0
31,Slovenia,96.0, , , , ,96, ,46.2
32,UAE,85.0, , , ,20,65,2,8.6
33,Iraq,83.0, ,8, ,24,51, ,2.1
34,India,81.0,7,1, ,4,76, ,0.1
35,Egypt,80.0, ,2, ,27,51, ,0.8
36,Kuwait,80.0, , , ,5,75,4,18.7
37,San Marino,77.0,5,5, , ,72,3,
38,Lebanon,77.0,9,3, ,1,73,3,11.3
39,Brazil,77.0, , , , ,77,2,0.4
40,Thailand,75.0,5,1, ,35,39,1,1.1
41,Ireland,70.0, ,1, , ,69,6,14.2
42,Romania,70.0,11, , ,7,63,1,3.6
43,Indonesia,69.0,35,4,3,3,62, ,0.3
44,Saudi Arabia,62.0,17, , ,1,61, ,1.8
45,Poland,61.0,10,1, , ,60,3,1.6
46,Philippines,52.0, ,5, ,2,45,1,0.5
47,Taiwan,50.0,1,1, ,20,29, ,2.1
48,Vietnam,44.0, , , ,16,28, ,0.5
49,Estonia,41.0,14, , , ,41, ,30.9
50,Brunei,37.0,12, , , ,37, ,
51,Palestine,35.0,4, , , ,35, ,6.9
52,Russia,34.0, , , ,3,31, ,0.2
53,Chile,33.0, , , , ,33, ,1.7
54,Argentina,31.0, ,1, , ,30,1,0.7
55,Croatia,31.0,4, , ,1,30, ,7.6
56,Serbia,31.0,7, , , ,31,1,3.5
57,Panama,27.0,13,1, , ,26, ,6.3
58,Algeria,26.0, ,2, ,10,14, ,0.6
59,Luxembourg,26.0, , , , ,26,1,
60,Georgia,25.0, , , , ,25,1,6.3
61,Albania,23.0, ,1, , ,22, ,8.0
62,Bulgaria,23.0, ,1, , ,22, ,3.3
63,Costa Rica,23.0, , , , ,23,1,4.5
64,Pakistan,22.0,1, , ,2,20, ,0.1
65,Peru,22.0, , , , ,22, ,0.7
66,Belarus,21.0, , , ,3,18, ,2.2
67,Slovakia,21.0, , , , ,21, ,3.8
68,Ecuador,19.0,2, , , ,19,1,1.1
69,Oman,19.0,1, , ,9,10, ,3.7
70,Hungary,19.0,3, , , ,19, ,2.0
71,Latvia,17.0,1, , ,1,16, ,9.0
72,South Africa,16.0, , , , ,16, ,0.3
73,Azerbaijan,15.0, ,1, ,3,11, ,1.5
74,Cyprus,14.0,4, , , ,14, ,11.6
75,Tunisia,13.0, , , , ,13,2,1.1
76,Mexico,12.0, , , ,4,8,1,0.1
77,Malta,12.0,3, , ,1,11, ,
78,Bosnia and Herzegovina,11.0, , , , ,11, ,3.4
79,Macao,10.0, , , ,10,0, ,
80,Senegal,10.0, , , ,2,8, ,0.6
81,North Macedonia,9.0, , , ,1,8, ,4.3
82,Colombia,9.0, , , , ,9, ,0.2
83,Jamaica,8.0,6, , , ,8, ,2.7
84,Maldives,8.0, , , , ,8, ,
85,Morocco,7.0,1,1, , ,6,1,0.2
86,Afghanistan,7.0, , , , ,7, ,0.2
87,Armenia,6.0, , , , ,6, ,2.0
88,Lithuania,6.0,3, , , ,6, ,2.2
89,French Guiana,6.0, , , , ,6, ,
90,Moldova,6.0, , , , ,6, ,1.5
91,Paraguay,6.0, , , , ,6,1,0.8
92,Cambodia,5.0, , , ,1,4, ,0.3
93,Dominican Republic,5.0, , , , ,5, ,0.5
94,New Zealand,5.0, , , , ,5, ,1.0
95,Reunion,5.0,1, , , ,5, ,
96,Liechtenstein,4.0, , , , ,4, ,
97,Sri Lanka,3.0, , , ,1,2, ,0.1
98,Ukraine,3.0, , , , ,3, ,0.1
99,Bangladesh,3.0, , , , ,3, ,
100,Bolivia,3.0, , , , ,3, ,0.3
101,Channel Islands,3.0, , , , ,3, ,
102,Cuba,3.0, , , , ,3, ,0.3
103,Faeroe Islands,3.0,1, , , ,3, ,
104,French Polynesia,3.0,2, , , ,3, ,
105,Martinique,3.0, , , , ,3, ,
106,Monaco,2.0, , , , ,2, ,
107,Nigeria,2.0, , , , ,2, ,
108,Burkina Faso,2.0, , , , ,2, ,0.1
109,Cameroon,2.0, , , , ,2, ,0.1
110,DRC,2.0,1, , , ,2, ,
111,Ghana,2.0, , , , ,2, ,0.1
112,Honduras,2.0, , , , ,2, ,0.2
113,Kazakhstan,2.0,2, , , ,2, ,0.1
114,Saint Martin,2.0, , , , ,2, ,
115,Turkey,2.0,1, , , ,2, ,
116,Guyana,1.0, ,1, , ,0, ,
117,Andorra,1.0, , , , ,1, ,
118,Jordan,1.0, , , , ,1, ,0.1
119,Nepal,1.0, , , ,1,0, ,
120,Bhutan,1.0, , , , ,1, ,
121,Cayman Islands,1.0,1, , , ,1, ,
122,Ivory Coast,1.0, , , , ,1, ,
123,Ethiopia,1.0,1, , , ,1, ,
124,Gibraltar,1.0, , , ,1,0, ,
125,Guadeloupe,1.0,1, , , ,1, ,
126,Vatican City,1.0, , , , ,1, ,
127,Kenya,1.0,1, , , ,1, ,
128,Mongolia,1.0, , , , ,1, ,0.3
129,St. Barth,1.0, , , , ,1, ,
130,St. Vincent Grenadines,1.0, , , , ,1, ,
131,Togo,1.0, , , , ,1, ,0.1
132,Trinidad and Tobago,1.0, , , , ,1, ,0.7
