"Country,Other",TotalCases,NewCases,TotalDeaths,NewDeaths,TotalRecovered,ActiveCases,"Serious,Critical",Tot Cases/1M pop
China,80849,25, 3199 ,10,66931 , 10719 ,3226 ,56.2
Italy,21157, , 1441 , ,1966 , 17750 ,1518 ,349.9
Iran,13938, +1209 ,724,113,4339 , 8875 , ,165.9
S. Korea,8162,76,75,3,834, 7253 ,59,159.2
Spain,7753, +1362 ,208,12,517, 7028 ,272,165.8
Germany,5381,782,10,1,46, 5325 ,9,64.2
France,4499,30,91, ,12, 4396 ,300,68.9
USA,3046,103,60,3,56, 2930 ,10,9.2
Switzerland,2217,842,14,1,4, 2199 , ,256.2
Norway,1205,96,3, ,1, 1201 ,27,222.3
UK,1140, ,21, ,18, 1101 ,20,16.8
Sweden,992,31,2, ,1,989,2,98.2
Netherlands,959, ,12, ,2,945,45,56.0
Belgium,886,197,4, ,1,881,33,76.4
Denmark,864,28,2,1,1,861,2,149.2
Japan,805,1,22, ,144,639,35,6.4
Austria,800,145,1, ,6,793,1,88.8
Diamond Princess,696, ,7, ,456,233,15,
Malaysia,428,190, , ,42,386,9,13.2
Qatar,337, , , ,4,333, ,117.0
Australia,300,52,5,2,27,268,1,11.8
Canada,252, ,1, ,11,240,1,6.7
Portugal,245,76, , ,2,243,10,24.0
Finland,244,19, , ,10,234, ,44.0
Czechia,231,42, , , ,231,2,21.6
Greece,228, ,4,1,8,216,5,21.9
Bahrain,214,2, , ,60,154,2,125.8
Singapore,212, , , ,105,107,11,36.2
Israel,200,7, , ,4,196,2,23.1
Slovenia,181, ,1, , ,180,3,87.1
Iceland,161, , , , ,161,1,
Hong Kong,145,3,4, ,81,60,4,19.3
Philippines,140,29,11,3,2,127,1,1.3
Estonia,135,20, , ,1,134, ,101.8
Romania,131,8, , ,9,122,1,6.8
Ireland,129, ,2, ,1,126,6,26.1
Brazil,121, , , ,1,120,2,0.6
Indonesia,117,21,5, ,8,104, ,0.4
Thailand,114,32,1, ,35,78,1,1.6
Kuwait,112,8, , ,9,103,4,26.2
Poland,111,7,3, ,13,95,3,2.9
Iraq,110, ,10, ,26,74, ,2.7
Egypt,110, ,2, ,27,81, ,1.1
India,108,8,2, ,10,96, ,0.1
Saudi Arabia,103, , , ,2,101, ,3.0
San Marino,101, ,5, ,4,92,3,
Lebanon,99,6,3, ,1,95,3,14.5
UAE,86,1, , ,20,66,2,8.7
Chile,61, , , , ,61, ,3.2
Luxembourg,59,8,1, , ,58, ,
Taiwan,59,6,1, ,20,38, ,2.5
Russia,59, , , ,8,51, ,0.4
Slovakia,54,10, , , ,54, ,9.9
Vietnam,53, , , ,16,37, ,0.5
Pakistan,51,18, , ,2,49, ,0.2
South Africa,51,13, , , ,51, ,0.9
Brunei,50,10, , , ,50, ,
Algeria,48,9,4,1,10,34, ,1.1
Croatia,46,7, , ,2,44, ,11.2
Serbia,46, , , , ,46,1,5.3
Argentina,45, ,2, , ,43,1,1.0
Bulgaria,43,2,2, , ,41, ,6.2
Panama,43, ,1, , ,42, ,10.0
Peru,43, , , , ,43, ,1.3
Albania,42,4,1, , ,41,2,14.6
Mexico,41,15, , ,4,37,1,0.3
Palestine,38, , , , ,38, ,7.4
Hungary,32,2, , ,1,31, ,3.3
Georgia,30, , , ,1,29,1,7.5
Latvia,30,4, , ,1,29, ,15.9
Ecuador,28, ,2, , ,26,1,1.6
Morocco,28,10,1, ,1,26,1,0.8
Belarus,27, , , ,3,24, ,2.9
Costa Rica,27, , , , ,27,1,5.3
Cyprus,26, , , , ,26, ,21.5
Senegal,24, , , ,2,22, ,1.4
Colombia,24, , , , ,24, ,0.5
Azerbaijan,23,4,1, ,6,16, ,2.3
Armenia,23,3, , , ,23, ,7.8
Oman,21,1, , ,9,12, ,4.1
Bosnia and Herzegovina,21, , , , ,21, ,6.4
Malta,21,3, , ,2,19, ,
North Macedonia,19, , , ,1,18, ,9.1
Tunisia,18, , , , ,18,2,1.5
Afghanistan,16,5, , ,1,15, ,0.4
Maldives,13,3, , , ,13, ,
Moldova,12, , , , ,12, ,3.0
Dominican Republic,11, , , , ,11, ,1.0
Sri Lanka,11,1, , ,1,10, ,0.5
Faeroe Islands,11,1, , , ,11, ,
Macao,10, , , ,10,0, ,
Bolivia,10, , , , ,10, ,0.9
Martinique,10, , , , ,10, ,
Venezuela,10,8, , , ,10, ,0.4
Lithuania,9, , , ,1,8, ,3.3
New Zealand,8, , , , ,8, ,1.7
Jamaica,8, , , , ,8, ,2.7
Kazakhstan,8,2, , , ,8, ,0.4
Cambodia,7, , , ,1,6, ,0.4
Jordan,7,6, , ,1,6, ,0.7
French Guiana,7, , , , ,7, ,
Liechtenstein,7,3, , , ,7, ,
Paraguay,7, , , , ,7,1,1.0
Réunion,6, , , , ,6, ,
Turkey,6, , , , ,6, ,0.1
Uruguay,6, , , , ,6, ,1.7
Bangladesh,5, , , ,2,3, ,
Guyana,4,3,1, , ,3, ,
Ivory Coast,4,2, , , ,4, ,0.2
Cuba,4, , , , ,4, ,0.4
Puerto Rico,4, , , , ,4, ,1.4
Ukraine,3, ,1, , ,2, ,0.1
Burkina Faso,3,1, , , ,3, ,0.1
Channel Islands,3, , , , ,3, ,
French Polynesia,3, , , , ,3, ,
Guadeloupe,3, , , , ,3, ,
Guam,3,3, , , ,3, ,
Honduras,3, , , , ,3, ,0.3
Monaco,2, , , , ,2, ,
Nigeria,2, , , ,1,1, ,
Aruba,2, , , , ,2, ,
Cameroon,2, , , , ,2, ,0.1
Curaçao,2, , , , ,2, ,
DRC,2, , , , ,2, ,
Ghana,2, , , , ,2, ,0.1
Namibia,2, , , , ,2, ,0.8
Saint Lucia,2,1, , , ,2, ,
Saint Martin,2, , , , ,2, ,
Seychelles,2, , , , ,2, ,
Trinidad and Tobago,2, , , , ,2, ,1.4
Sudan,1, ,1, , ,0, ,
Andorra,1, , , , ,1, ,
Nepal,1, , , ,1,0, ,
Antigua and Barbuda,1, , , , ,1, ,
Bhutan,1, , , , ,1, ,
Cayman Islands,1, , , , ,1, ,
CAR,1,1, , , ,1, ,0.2
Congo,1,1, , , ,1, ,0.2
Equatorial Guinea,1, , , , ,1, ,0.7
Ethiopia,1, , , , ,1, ,
Gabon,1, , , , ,1, ,0.4
Gibraltar,1, , , ,1,0, ,
Guatemala,1, , , , ,1, ,0.1
Guinea,1, , , , ,1, ,0.1
Vatican City,1, , , , ,1, ,
Kenya,1, , , , ,1, ,
Mauritania,1, , , , ,1, ,0.2
Mayotte,1, , , , ,1, ,
Mongolia,1, , , , ,1, ,0.3
Rwanda,1, , , , ,1, ,0.1
St. Barth,1, , , , ,1, ,
St. Vincent Grenadines,1, , , , ,1, ,
Suriname,1, , , , ,1, ,
Eswatini,1, , , , ,1, ,0.9
Togo,1, , , , ,1, ,0.1
U.S. Virgin Islands,1, , , , ,1, ,
Uzbekistan,1,1, , , ,1, ,
Total:,162201,5629,5974,151,75967,80260,5663,20.8
