"Country,Other",TotalCases,NewCases,TotalDeaths,NewDeaths,TotalRecovered,ActiveCases,"Serious,Critical",Tot Cases/1M pop
China,80815.0,22, 3177 ,8,64152 , 13486 ,4020 ,56.1
Italy,15113.0, , 1016 , ,1258 , 12839 ,1153 ,250.0
Iran,11364.0, +1289 ,514,85,3529 , 7321 , ,135.3
S. Korea,7979.0,110,71,5,510, 7398 ,93,155.6
Spain,4209.0, +1063 ,120,34,189, 3900 ,190,90.0
Germany,3117.0,372,7,1,46, 3064 ,9,37.2
France,2876.0, ,61, ,12, 2803 ,129,44.1
USA,1832.0,135,41, ,31, 1760 ,10,5.5
Switzerland,1135.0,267,7, ,4, 1124 , ,131.1
Norway,895.0,95,1, ,1,893,27,165.1
Netherlands,804.0,190,5, ,2,797,1,46.9
Denmark,785.0,111, , ,1,784,2,135.5
Sweden,733.0,46,1, ,1,731,2,72.6
Japan,701.0,10,19, ,118,564,29,5.5
Diamond Princess,696.0, ,7, ,325,364,32,
UK,609.0,19,10, ,18,581,20,9.0
Belgium,556.0,157,3, ,1,552,2,48.0
Austria,428.0,67,1, ,6,421,1,47.5
Qatar,262.0, , , , ,262, ,90.9
Bahrain,210.0,13, , ,44,166,1,123.4
Singapore,200.0,13, , ,97,103,12,34.2
Australia,199.0,43,3, ,26,170,1,7.8
Canada,158.0,16,1, ,11,146,1,4.2
Malaysia,158.0, , , ,32,126,3,4.9
Finland,155.0,46, , ,1,154, ,28.0
Hong Kong,132.0,1,4,1,77,51,4,17.6
Israel,126.0,17, , ,4,122,2,14.6
Czechia,120.0,4, , , ,120,2,11.2
Greece,117.0, ,1, ,2,114,2,11.2
Iceland,117.0, , , , ,117, ,
Portugal,112.0,34, , ,1,111,1,11.0
Kuwait,100.0,20, , ,5,95,4,23.4
Slovenia,96.0, , , , ,96, ,46.2
Brazil,85.0,8, , , ,85,2,0.4
UAE,85.0, , , ,20,65,2,8.6
Iraq,83.0, ,8, ,24,51, ,2.1
India,81.0,7,1, ,4,76, ,0.1
Egypt,80.0, ,2, ,27,51, ,0.8
San Marino,77.0,5,5, , ,72,3,
Lebanon,77.0,9,3, ,1,73,3,11.3
Thailand,75.0,5,1, ,35,39,1,1.1
Romania,73.0,14, , ,7,66,1,3.8
Ireland,70.0, ,1, , ,69,6,14.2
Indonesia,69.0,35,4,3,5,60, ,0.3
Poland,64.0,13,1, , ,63,3,1.7
Saudi Arabia,62.0,17, , ,1,61, ,1.8
Philippines,52.0, ,5, ,2,45,1,0.5
Taiwan,50.0,1,1, ,20,29, ,2.1
Vietnam,44.0, , , ,16,28, ,0.5
Estonia,41.0,14, , , ,41, ,30.9
Brunei,37.0,12, , , ,37, ,
Palestine,35.0,4, , , ,35, ,6.9
Russia,34.0, , , ,8,26, ,0.2
Albania,33.0,10,1, , ,32, ,11.5
Chile,33.0, , , , ,33, ,1.7
Argentina,31.0, ,1, , ,30,1,0.7
Croatia,31.0,4, , ,1,30, ,7.6
Serbia,31.0,7, , , ,31,1,3.5
Panama,27.0,13,1, , ,26, ,6.3
Algeria,26.0, ,2, ,10,14, ,0.6
Luxembourg,26.0, , , , ,26,1,
Georgia,25.0, , , , ,25,1,6.3
South Africa,24.0,8, , , ,24, ,0.4
Bulgaria,23.0, ,1, , ,22, ,3.3
Costa Rica,23.0, , , , ,23,1,4.5
Pakistan,22.0,1, , ,2,20, ,0.1
Peru,22.0, , , , ,22, ,0.7
Belarus,21.0, , , ,3,18, ,2.2
Slovakia,21.0, , , , ,21, ,3.8
Ecuador,19.0,2, , , ,19,1,1.1
Oman,19.0,1, , ,9,10, ,3.7
Hungary,19.0,3, , , ,19, ,2.0
Latvia,17.0,1, , ,1,16, ,9.0
Azerbaijan,15.0, ,1, ,3,11, ,1.5
Cyprus,14.0,4, , , ,14, ,11.6
Tunisia,13.0, , , , ,13,2,1.1
Mexico,12.0, , , ,4,8,1,0.1
Malta,12.0,3, , ,1,11, ,
Bosnia and Herzegovina,11.0, , , , ,11, ,3.4
Macao,10.0, , , ,10,0, ,
Senegal,10.0, , , ,2,8, ,0.6
North Macedonia,9.0, , , ,1,8, ,4.3
Colombia,9.0, , , , ,9, ,0.2
Armenia,8.0,2, , , ,8, ,2.7
Jamaica,8.0,6, , , ,8, ,2.7
Maldives,8.0, , , , ,8, ,
Morocco,7.0,1,1, , ,6,1,0.2
Afghanistan,7.0, , , , ,7, ,0.2
Lithuania,6.0,3, , , ,6, ,2.2
French Guiana,6.0, , , , ,6, ,
Moldova,6.0, , , , ,6, ,1.5
Paraguay,6.0, , , , ,6,1,0.8
Cambodia,5.0, , , ,1,4, ,0.3
Dominican Republic,5.0, , , , ,5, ,0.5
New Zealand,5.0, , , , ,5, ,1.0
Reunion,5.0,1, , , ,5, ,
Liechtenstein,4.0, , , , ,4, ,
Sri Lanka,3.0, , , ,1,2, ,0.1
Ukraine,3.0, , , , ,3, ,0.1
Bangladesh,3.0, , , ,1,2, ,
Bolivia,3.0, , , , ,3, ,0.3
Channel Islands,3.0, , , , ,3, ,
Cuba,3.0, , , , ,3, ,0.3
Faeroe Islands,3.0,1, , , ,3, ,
French Polynesia,3.0,2, , , ,3, ,
Martinique,3.0, , , , ,3, ,
Monaco,2.0, , , , ,2, ,
Nigeria,2.0, , , , ,2, ,
Burkina Faso,2.0, , , , ,2, ,0.1
Cameroon,2.0, , , , ,2, ,0.1
DRC,2.0,1, , , ,2, ,
Ghana,2.0, , , , ,2, ,0.1
Honduras,2.0, , , , ,2, ,0.2
Kazakhstan,2.0,2, , , ,2, ,0.1
Saint Martin,2.0, , , , ,2, ,
Turkey,2.0,1, , , ,2, ,
Guyana,1.0, ,1, , ,0, ,
Andorra,1.0, , , , ,1, ,
Jordan,1.0, , , ,1,0, ,0.1
Nepal,1.0, , , ,1,0, ,
Bhutan,1.0, , , , ,1, ,
Cayman Islands,1.0,1, , , ,1, ,
Ivory Coast,1.0, , , , ,1, ,
Ethiopia,1.0,1, , , ,1, ,
Gibraltar,1.0, , , ,1,0, ,
Guadeloupe,1.0,1, , , ,1, ,
Vatican City,1.0, , , , ,1, ,
Kenya,1.0,1, , , ,1, ,
Mongolia,1.0, , , , ,1, ,0.3
St. Barth,1.0, , , , ,1, ,
St. Vincent Grenadines,1.0, , , , ,1, ,
Togo,1.0, , , , ,1, ,0.1
Trinidad and Tobago,1.0, , , , ,1, ,0.7
