"Country,Other",TotalCases,NewCases,TotalDeaths,NewDeaths,TotalRecovered,ActiveCases,"Serious,Critical",Tot Cases/1M pop
China,80881,21, 3226 ,13,68709 , 8946 ,3226 ,56.2
Italy,27980, , 2158 , ,2749 , 23073 ,1851 ,
Iran,16169, +1178 ,988,135,5389 , 9792 , ,192.5
Spain,11279, +1337 ,497,155,1028 , 9754 ,563,241.2
S. Korea,8320,84,81,6,1401 , 6838 ,59,162.3
Germany,7974,702,20,3,67, 7887 ,2,95.2
France,6633, ,148, ,12, 6473 ,400,101.6
USA,4744,81,93,7,74, 4577 ,12,14.3
Switzerland,2672,319,21,2,4, 2647 , ,308.7
Netherlands,1705,292,43,19,2, 1660 ,45,99.5
UK,1543, ,55, ,52, 1436 ,20,22.7
Norway,1419,71,3, ,1, 1415 ,27,261.7
Belgium,1243,185,10, ,1, 1232 ,33,107.3
Austria,1211,193,4,1,8, 1199 ,12,134.5
Sweden,1140,19,7, ,1, 1132 ,2,112.9
Denmark,960,46,4, ,1,955,18,165.7
Japan,876,43,28, ,144,704,41,6.9
Diamond Princess,696, ,7, ,456,233,15,
Malaysia,673,107,2,2,49,622,10,20.8
Australia,452,51,5, ,27,420,1,17.7
Portugal,448,117,1, ,3,444,18,43.9
Canada,441, ,4, ,11,426,1,11.7
Qatar,439, , , ,4,435, ,152.4
Czechia,396,52, , ,3,393,2,37.0
Greece,352, ,4, ,10,338,5,33.8
Israel,324,26, , ,11,313,4,37.4
Finland,321,43, , ,10,311,2,57.9
Brazil,301,67, , ,2,299,18,1.4
Slovenia,253, ,1, , ,252,3,121.7
Singapore,243, , , ,109,134,11,41.5
Bahrain,237,9,1, ,81,155,3,139.3
Estonia,225,20, , ,1,224, ,169.6
Ireland,223, ,2, ,5,216,6,45.2
Poland,221,44,5,1, ,216,3,5.8
Iceland,220,21, , ,5,215,1,
Pakistan,212,28,1, ,2,209, ,1.0
Philippines,187,45,12, ,5,170,1,1.7
Romania,184,16, , ,16,168,3,9.6
Chile,181,25, , , ,181, ,9.5
Thailand,177,30,1, ,41,135,1,2.5
Indonesia,172,38,5, ,8,159, ,0.6
Egypt,166, ,4, ,32,130, ,1.6
Hong Kong,162,7,4, ,81,77,4,21.6
Iraq,154,21,11,1,41,102, ,3.8
Luxembourg,140,59,1, , ,139,10,
India,137,8,3,1,14,120, ,0.1
Saudi Arabia,133, , , ,6,127, ,3.8
Kuwait,130,7, , ,12,118,4,30.4
Lebanon,120,11,3, ,3,114,3,17.6
San Marino,102, ,9,2,4,89,11,
UAE,98, , , ,26,72,2,9.9
Russia,93, , , ,8,85, ,0.6
Peru,86, , , ,1,85,8,2.6
Slovakia,84,12, , , ,84, ,15.4
Mexico,82,29, , ,4,78,1,0.6
Taiwan,77,10,1, ,20,56, ,3.2
Panama,69, ,1, , ,68,7,16.0
Argentina,68,3,2, ,3,63,1,1.5
Bulgaria,67,5,2, , ,65, ,9.6
Vietnam,66,5, , ,16,50, ,0.7
Croatia,65,8, , ,4,61, ,15.8
Serbia,65,8, , ,1,64,2,7.4
Armenia,64,12, , ,1,63,2,21.6
South Africa,62, , , , ,62, ,1.0
Algeria,60, ,5,1,10,45, ,1.4
Latvia,60,26, , ,1,59, ,31.8
Ecuador,58, ,2, , ,56,2,3.3
Colombia,57,3, , ,1,56, ,1.1
Brunei,56,2, , , ,56,1,
Albania,55,4,1, , ,54,2,19.1
Hungary,50,11,1, ,2,47, ,5.2
Faeroe Islands,47,29, , , ,47, ,
Turkey,47, , , , ,47, ,0.6
Cyprus,46, , , , ,46,1,38.1
Costa Rica,41, , , , ,41,3,8.0
Palestine,41,2, , , ,41, ,8.0
Morocco,38,1,2,1,1,35,1,1.0
Malta,38,8, , ,2,36, ,
Belarus,36, , , ,3,33, ,3.8
Jordan,35,6, , ,1,34, ,3.4
Sri Lanka,35,7, , ,1,34, ,1.6
Georgia,34,1, , ,1,33,1,8.5
Venezuela,33,16, , , ,33, ,1.2
Kazakhstan,32,22, , , ,32, ,1.7
Moldova,29, , , ,1,28,1,7.2
Uruguay,29, , , , ,29, ,8.3
Azerbaijan,28,3,1, ,6,21, ,2.8
Senegal,27, , , ,2,25, ,1.6
North Macedonia,26,2, , ,1,25,1,12.5
Bosnia and Herzegovina,26,1, , ,2,24, ,7.9
Cambodia,24,12, , ,1,23, ,1.4
Oman,24, , , ,12,12, ,4.7
Tunisia,24, , , ,1,23,2,2.0
Afghanistan,22,1, , ,1,21, ,0.6
Dominican Republic,21, ,1, , ,20, ,1.9
Lithuania,21,3, , ,1,20,1,7.7
Martinique,15, ,1, , ,14, ,
Burkina Faso,15, , , , ,15, ,0.7
Andorra,14, , , , ,14, ,
Macao,13,1, , ,10,3, ,
Maldives,13, , , , ,13, ,
New Zealand,12,4, , , ,12, ,2.5
Jamaica,12, , , ,2,10, ,4.1
Bolivia,11, , , , ,11, ,0.9
French Guiana,11, , , , ,11, ,
Uzbekistan,11,3, , , ,11, ,0.3
Bangladesh,10,2, , ,3,7, ,0.1
Cameroon,10,5, , , ,10, ,0.4
Monaco,9, , , , ,9, ,
Paraguay,9,1, , , ,9,1,1.3
Réunion,9, , , , ,9, ,
Guatemala,8, ,1, , ,7, ,0.4
Honduras,8,2, , , ,8, ,0.8
Guyana,7, ,1, , ,6, ,
Ukraine,7, ,1, , ,6, ,0.2
Liechtenstein,7, , , , ,7, ,
Rwanda,7, , , , ,7, ,0.5
Channel Islands,6, , , , ,6, ,
Ghana,6, , , , ,6, ,0.2
Guadeloupe,6, , , , ,6, ,
Cuba,5,1, , , ,5, ,0.4
Ethiopia,5, , , , ,5, ,
Guam,5,2, , , ,5, ,
Puerto Rico,5, , , , ,5, ,1.7
Trinidad and Tobago,5,1, , , ,5, ,3.6
Ivory Coast,4, , , , ,4, ,0.2
Kenya,4,1, , , ,4, ,0.1
Mongolia,4, , , , ,4, ,1.2
Seychelles,4,1, , , ,4, ,
Nigeria,3,1, , ,1,2, ,
Aruba,3,1, , , ,3, ,
DRC,3, , , , ,3, ,
French Polynesia,3, , , , ,3, ,
Gibraltar,3, , , ,1,2, ,
St. Barth,3, , , , ,3, ,
Curaçao,2, , , , ,2, ,
Liberia,2,1, , , ,2, ,0.4
Namibia,2, , , , ,2, ,0.8
Saint Lucia,2, , , , ,2, ,
Saint Martin,2, , , , ,2, ,
U.S. Virgin Islands,2,1, , , ,2, ,
Cayman Islands,1, ,1, , ,0, ,
Sudan,1, ,1, , ,0, ,
Nepal,1, , , ,1,0, ,
Antigua and Barbuda,1, , , , ,1, ,
Bahamas,1, , , , ,1, ,
Benin,1, , , , ,1, ,0.1
Bhutan,1, , , , ,1, ,
CAR,1, , , , ,1, ,0.2
Congo,1, , , , ,1, ,0.2
Equatorial Guinea,1, , , , ,1, ,0.7
Gabon,1, , , , ,1, ,0.4
Greenland,1, , , , ,1, ,
Guinea,1, , , , ,1, ,0.1
Vatican City,1, , , , ,1, ,
Mauritania,1, , , , ,1, ,0.2
Mayotte,1, , , , ,1, ,
St. Vincent Grenadines,1, , , , ,1, ,
Somalia,1, , , , ,1, ,0.1
Suriname,1, , , , ,1, ,
Eswatini,1, , , , ,1, ,0.9
Tanzania,1, , , , ,1, ,
Togo,1, , , , ,1, ,0.1
Total:,188146,5703,7497,350,80848,99801,6491,24.1
